<?xml version="1.0" encoding="utf-8"?>
<COLLADA xmlns="http://www.collada.org/2005/11/COLLADASchema" version="1.4.1">
  <asset>
    <contributor>
      <author>Blender User</author>
      <authoring_tool>Blender 2.78.0 commit date:2017-02-24, commit time:14:33, hash:e92f2352830</authoring_tool>
    </contributor>
    <created>2017-07-14T10:06:20</created>
    <modified>2017-07-14T10:06:20</modified>
    <unit name="meter" meter="1"/>
    <up_axis>Z_UP</up_axis>
  </asset>
  <library_images/>
  <library_effects>
    <effect id="Kunststoff_druckteile_004_002-effect">
      <profile_COMMON>
        <technique sid="common">
          <phong>
            <emission>
              <color sid="emission">0 0 0 1</color>
            </emission>
            <ambient>
              <color sid="ambient">0 0 0 1</color>
            </ambient>
            <diffuse>
              <color sid="diffuse">0.5 0.5 0.5 1</color>
            </diffuse>
            <specular>
              <color sid="specular">0.5 0.5 0.5 1</color>
            </specular>
            <shininess>
              <float sid="shininess">50</float>
            </shininess>
            <index_of_refraction>
              <float sid="index_of_refraction">1</float>
            </index_of_refraction>
          </phong>
        </technique>
      </profile_COMMON>
    </effect>
    <effect id="Gummi_007_002-effect">
      <profile_COMMON>
        <technique sid="common">
          <phong>
            <emission>
              <color sid="emission">0 0 0 1</color>
            </emission>
            <ambient>
              <color sid="ambient">0 0 0 1</color>
            </ambient>
            <diffuse>
              <color sid="diffuse">0.1 0.1 0.1 1</color>
            </diffuse>
            <specular>
              <color sid="specular">0.025 0.025 0.025 1</color>
            </specular>
            <shininess>
              <float sid="shininess">50</float>
            </shininess>
            <index_of_refraction>
              <float sid="index_of_refraction">1</float>
            </index_of_refraction>
          </phong>
        </technique>
      </profile_COMMON>
    </effect>
  </library_effects>
  <library_materials>
    <material id="Kunststoff_druckteile_004_002-material" name="Kunststoff_druckteile_004_002">
      <instance_effect url="#Kunststoff_druckteile_004_002-effect"/>
    </material>
    <material id="Gummi_007_002-material" name="Gummi_007_002">
      <instance_effect url="#Gummi_007_002-effect"/>
    </material>
  </library_materials>
  <library_geometries>
    <geometry id="Circle_032-mesh" name="Circle.032">
      <mesh>
        <source id="Circle_032-mesh-positions">
          <float_array id="Circle_032-mesh-positions-array" count="885">0.003531098 3.79714e-5 0.006001174 0.003181815 0.001568377 0.006001472 0.002203166 0.002795636 0.006001889 7.88915e-4 0.003476738 0.006002426 -7.80789e-4 0.003476738 0.006003022 -0.002195 0.002795636 0.006003439 -0.003173708 0.001568377 0.006003677 -0.003522992 3.79714e-5 0.006003618 -0.003173708 -0.001492381 0.006003379 -0.002195 -0.0027197 0.006002962 -7.80789e-4 -0.003400802 0.006002366 7.88916e-4 -0.003400802 0.00600183 0.002203166 -0.0027197 0.006001412 0.003181815 -0.001492381 0.006001174 0.002390205 0.004497528 0.006002008 -0.001009941 0.004465162 0.005964457 -0.002829492 0.003585815 0.005964457 -0.004086315 0.002008199 0.005965769 -0.004536628 3.91849e-5 0.005965948 -0.00408703 -0.001930773 0.005965769 -0.002820432 -0.003503978 0.005961358 -0.001003623 -0.004390716 0.005964756 8.8294e-4 -0.004421532 0.00600171 0.008001148 -0.004469573 0.006003558 9.49987e-4 -0.005355954 0.005993664 0.004825949 -0.005356013 0.00600022 0.002618372 0.007218003 0.002002239 -0.001599967 0.007072687 0.002003669 -0.004501879 0.005673348 0.002004563 -0.006507039 0.003168642 0.00200504 -0.007223546 4.40553e-5 0.00200504 -0.006502568 -0.003100693 0.002004504 -0.004496395 -0.005610048 0.00200355 -0.001603424 -0.006993293 0.002002418 6.5232e-7 -0.007142066 0.002001821 0.006027519 -9.7839e-5 0.006027281 0.004760503 -0.003613948 0.006000399 0.004825949 -0.004390597 0.006000339 0.007760584 -0.005197346 0.005832493 0.003559947 0.003689885 0.006001472 0 -0.006361901 0.004013538 -0.001405596 -0.006163477 0.003893077 -0.003967881 -0.004940688 0.003891527 -0.005752623 -0.002727627 0.003896415 -0.006374299 3.03635e-5 0.003907918 -0.00575298 0.002803325 0.003896653 -0.003968119 0.005016386 0.003891706 -0.001405894 0.006239116 0.003893196 0.002011179 0.006390035 0.00398463 0.004468739 0.003703773 0.006001174 0.005972743 0.004967689 0.006000757 9.48653e-4 -0.006830275 0.00427699 0.004826009 -0.006835937 0.004285156 0.007712721 -0.006649613 0.004173159 9.4812e-4 -0.007788896 0.002079904 0.004826009 -0.007791697 0.002080738 0.007710397 -0.007580339 0.002041399 1.86448e-4 -0.005752384 0.005572736 5.81132e-5 -0.006828069 0.0042755 5.80908e-5 -0.00778687 0.002077341 7.2229e-5 -0.004957437 0.005593299 0.009744226 -0.004471123 0.006003558 0.008000135 -0.006115317 0.004319429 0.007998406 -0.007224798 0.002098441 0.009749591 -0.006490528 0.003702461 0.009744107 -0.007170498 0.002081394 0.01495844 -0.006475448 0.003711879 0.01642137 -0.006471395 0.003453254 0.01766449 -0.006477713 0.002605438 0.01842039 -0.0064525 0.00157392 0.01347941 -0.004529476 0.005948841 0.01713794 -0.004510283 0.005559802 0.01922756 -0.004555463 0.004147052 0.02047348 -0.004499912 0.002403438 0.02184301 -0.001868724 0.00239104 0.02205437 8.24295e-4 0.002419352 0.02134209 0.003191113 0.002395749 0.0192629 0.005666851 0.002449691 0.01436239 0.007466018 0.002441287 0.008193433 0.008212447 0.002433836 0.01349574 -0.001968979 0.007721722 0.01705032 -0.001859486 0.006939411 0.01375067 4.0536e-4 0.007940411 0.01730275 4.0236e-4 0.007102251 0.01363897 0.002513051 0.007569491 0.01714998 0.002359569 0.006772398 0.01401215 0.00507611 0.005845308 0.01755952 0.004642903 0.005293428 0.01464414 0.006450295 0.004358351 0.01825588 0.005424201 0.004062056 0.0134778 -0.004474401 0.006615698 0.008001267 -0.004410088 0.006673097 0.004887938 -0.004389882 0.006590485 0.008566975 -3.89814e-4 0.008570969 0.009744286 -0.004410207 0.006673336 0.008351147 -0.001311182 0.008454561 0.007006585 0.005014955 0.006996273 0.008306384 0.002284407 0.008297264 0.006030023 0.005932509 0.006019711 0.01173913 -0.002179682 0.00796163 0.0117138 -3.52926e-4 0.008264601 0.007186949 0.00702548 0.005057036 0.01151549 0.002346754 0.00796622 0.01102709 0.004798233 0.006721913 0.0111531 0.008010268 0.002433598 0.003605842 0.003827333 0.00428158 0.01101779 0.006890773 0.004745543 0.002467095 0.004549562 0.004280567 0.004428744 0.003819942 0.00428009 0.005972743 0.004967689 0.004250824 0.00601834 0.005929052 0.004270672 0.002967715 0.007465541 0.002023398 0.003011345 0.007414937 0.003988862 0.004094719 0.007760107 0.002023518 0.004096329 0.007677137 0.003986835 0.005305826 0.007297039 0.002023756 0.005259931 0.007235467 0.003960192 0.006024539 0.006126284 0.002000927 0.003998935 -1.7467e-5 0.003001093 0.003583371 0.001762986 0.003001391 0.002474427 0.003150463 0.003001868 8.71806e-4 0.003917336 0.003002524 -9.05769e-4 0.003909766 0.00300312 -0.002505302 0.00312829 0.003003597 -0.003606438 0.001727163 0.003003895 -0.003988683 9.30675e-5 0.003003895 -0.003573536 -0.001686692 0.003003537 -0.002465307 -0.003074228 0.00300306 -8.63036e-4 -0.003841638 0.003002405 9.14772e-4 -0.003834724 0.003001809 0.002514898 -0.003053426 0.003001332 0.003616571 -0.001651942 0.003001034 0.003190636 -0.005161523 0.002000927 0.001693248 -0.005161523 0.002001404 0.01994448 -8.36273e-4 0.005526304 0.02001875 0.001444935 0.005358457 0.01932442 0.003884732 0.004756331 0.003531098 3.79714e-5 -0.006001174 0.003181815 0.001568377 -0.006001472 0.002203166 0.002795636 -0.006001889 7.88915e-4 0.003476738 -0.006002426 -7.80789e-4 0.003476738 -0.006003022 -0.002195 0.002795636 -0.006003439 -0.003173708 0.001568377 -0.006003677 -0.003522992 3.79714e-5 -0.006003618 -0.003173708 -0.001492381 -0.006003379 -0.002195 -0.0027197 -0.006002962 -7.80789e-4 -0.003400802 -0.006002366 7.88916e-4 -0.003400802 -0.00600183 0.002203166 -0.0027197 -0.006001412 0.003181815 -0.001492381 -0.006001174 0.002390205 0.004497528 -0.006002008 -0.001009941 0.004465162 -0.005964457 -0.002829492 0.003585815 -0.005964457 -0.004086315 0.002008199 -0.005965769 -0.004536628 3.91849e-5 -0.005965948 -0.00408703 -0.001930773 -0.005965769 -0.002820432 -0.003503978 -0.005961358 -0.001003623 -0.004390716 -0.005964756 8.8294e-4 -0.004421532 -0.00600171 0.008001148 -0.004469573 -0.006003558 9.49987e-4 -0.005355954 -0.005993664 0.004825949 -0.005356013 -0.00600022 0.002618372 0.007218003 -0.002002239 -0.001599967 0.007072687 -0.002003669 -0.004501879 0.005673348 -0.002004563 -0.006507039 0.003168642 -0.00200504 -0.007223546 4.40553e-5 -0.00200504 -0.006502568 -0.003100693 -0.002004504 -0.004496395 -0.005610048 -0.00200355 -0.001603424 -0.006993293 -0.002002418 6.5232e-7 -0.007142066 -0.002001821 0.006027519 -9.7839e-5 -0.006027281 0.004760503 -0.003613948 -0.006000399 0.004825949 -0.004390597 -0.006000339 0.007760584 -0.005197346 -0.005832493 0.003559947 0.003689885 -0.006001472 0 -0.006361901 -0.004013538 -0.001405596 -0.006163477 -0.003893077 -0.003967881 -0.004940688 -0.003891527 -0.005752623 -0.002727627 -0.003896415 -0.006374299 3.03635e-5 -0.003907918 -0.00575298 0.002803325 -0.003896653 -0.003968119 0.005016386 -0.003891706 -0.001405894 0.006239116 -0.003893196 0.002011179 0.006390035 -0.00398463 0.004468739 0.003703773 -0.006001174 0.005972743 0.004967689 -0.006000757 9.48653e-4 -0.006830275 -0.00427699 0.004826009 -0.006835937 -0.004285156 0.007712721 -0.006649613 -0.004173159 9.4812e-4 -0.007788896 -0.002079904 0.004826009 -0.007791697 -0.002080738 0.007710397 -0.007580339 -0.002041399 0.00344026 -0.008065223 0 0.004826009 -0.008066415 0 0.007721662 -0.007844388 0 1.86448e-4 -0.005752384 -0.005572736 5.81132e-5 -0.006828069 -0.0042755 5.80908e-5 -0.00778687 -0.002077341 7.2229e-5 -0.004957437 -0.005593299 0.009744226 -0.004471123 -0.006003558 0.008000135 -0.006115317 -0.004319429 0.007998406 -0.007224798 -0.002098441 0.007997393 -0.007528781 0 0.009749591 -0.006490528 -0.003702461 0.009744107 -0.007170498 -0.002081394 0.009744346 -0.007470667 0 0.00974828 -0.006505846 0 0.01495844 -0.006475448 -0.003711879 0.01384353 -0.00544399 0 0.01642137 -0.006471395 -0.003453254 0.0168181 -0.006106317 0 0.01766449 -0.006477713 -0.002605438 0.01766657 -0.006477475 0 0.01842039 -0.0064525 -0.00157392 0.01872789 -0.006478428 0 0.01347941 -0.004529476 -0.005948841 0.01713794 -0.004510283 -0.005559802 0.01922756 -0.004555463 -0.004147052 0.02047348 -0.004499912 -0.002403438 0.02095961 -0.004526853 0 0.02184301 -0.001868724 -0.00239104 0.02225911 -0.001863479 0 0.02205437 8.24295e-4 -0.002419352 0.02245837 8.48569e-4 0 0.02134209 0.003191113 -0.002395749 0.02166467 0.003463685 0 0.0192629 0.005666851 -0.002449691 0.01953113 0.006001055 0 0.01436239 0.007466018 -0.002441287 0.01443934 0.007850587 0 0.008193433 0.008212447 -0.002433836 0.008753538 0.008602559 0 0.01349574 -0.001968979 -0.007721722 0.01705032 -0.001859486 -0.006939411 0.01375067 4.0536e-4 -0.007940411 0.01730275 4.0236e-4 -0.007102251 0.01363897 0.002513051 -0.007569491 0.01714998 0.002359569 -0.006772398 0.01401215 0.00507611 -0.005845308 0.01755952 0.004642903 -0.005293428 0.01464414 0.006450295 -0.004358351 0.01825588 0.005424201 -0.004062056 0.0134778 -0.004474401 -0.006615698 0.008001267 -0.004410088 -0.006673097 0.004887938 -0.004389882 -0.006590485 0.008566975 -3.89814e-4 -0.008570969 0.009744286 -0.004410207 -0.006673336 0.008351147 -0.001311182 -0.008454561 0.007006585 0.005014955 -0.006996273 0.008306384 0.002284407 -0.008297264 0.006030023 0.005932509 -0.006019711 0.01173913 -0.002179682 -0.00796163 0.0117138 -3.52926e-4 -0.008264601 0.007186949 0.00702548 -0.005057036 0.01151549 0.002346754 -0.00796622 0.01102709 0.004798233 -0.006721913 0.0111531 0.008010268 -0.002433598 0.01195472 0.008274853 0 0.003605842 0.003827333 -0.00428158 0.01101779 0.006890773 -0.004745543 0.002467095 0.004549562 -0.004280567 0.004428744 0.003819942 -0.00428009 0.005972743 0.004967689 -0.004250824 0.00601834 0.005929052 -0.004270672 0.002967715 0.007465541 -0.002023398 0.003011345 0.007414937 -0.003988862 0.004094719 0.007760107 -0.002023518 0.004096329 0.007677137 -0.003986835 0.005305826 0.007297039 -0.002023756 0.005259931 0.007235467 -0.003960192 0.006024539 0.006126284 -0.002000927 0.003998935 -1.7467e-5 -0.003001093 0.006596267 0.006618976 0 0.003583371 0.001762986 -0.003001391 0.002474427 0.003150463 -0.003001868 8.71806e-4 0.003917336 -0.003002524 -9.05769e-4 0.003909766 -0.00300312 -0.002505302 0.00312829 -0.003003597 -0.003606438 0.001727163 -0.003003895 -0.003988683 9.30675e-5 -0.003003895 -0.003573536 -0.001686692 -0.003003537 -0.002465307 -0.003074228 -0.00300306 -8.63036e-4 -0.003841638 -0.003002405 9.14772e-4 -0.003834724 -0.003001809 0.002514898 -0.003053426 -0.003001332 0.003616571 -0.001651942 -0.003001034 0.003190636 -0.005161523 -0.002000927 0.004295766 -0.005470812 0 0.001693248 -0.005161523 -0.002001404 0.003220856 -0.005964934 0 0.01994448 -8.36273e-4 -0.005526304 0.02001875 0.001444935 -0.005358457 0.01932442 0.003884732 -0.004756331</float_array>
          <technique_common>
            <accessor source="#Circle_032-mesh-positions-array" count="295" stride="3">
              <param name="X" type="float"/>
              <param name="Y" type="float"/>
              <param name="Z" type="float"/>
            </accessor>
          </technique_common>
        </source>
        <source id="Circle_032-mesh-normals">
          <float_array id="Circle_032-mesh-normals-array" count="885">-0.1616311 0.6824762 0.7128126 -0.0843541 -0.07825034 0.9933586 -0.3905546 0.1196659 0.912769 -0.1614762 -0.3667167 0.9162119 0.1533905 0.6701757 0.7261789 -0.1415171 -0.4308686 0.8912492 0.4279465 0.5361691 0.7275883 -0.293683 -0.3684847 0.8820257 0.6193301 0.2987849 0.7260564 -0.4224132 -0.2056674 0.8827616 0.6894024 0.001220762 0.7243776 -0.4691129 9.1558e-5 0.8831383 0.6200394 -0.3002533 0.7248442 -0.4225977 0.203959 0.8830696 0.4286106 -0.5373503 0.7263247 -0.2933564 0.3699916 0.8815035 0.1485393 -0.6723486 0.7251782 -0.1128591 0.4597682 0.8808383 -0.1561967 -0.6853367 0.711278 0.3313149 0.5415607 0.7726205 -0.6331894 -0.3058976 0.7109838 -0.1976447 0.5578674 0.8060525 -0.4380071 -0.5496452 0.7113648 -0.6369606 0.3052504 0.7078866 -0.4147272 0.0734905 0.9069734 -0.7085394 0.001007139 0.7056706 -0.4382003 0.5502988 0.7107403 -0.7536115 -0.5469657 0.3645522 -0.2657011 -0.8049161 0.5305781 -0.2285599 -0.7513271 -0.6190865 -0.5245667 -0.6631551 0.5339056 -0.4944049 -0.6254833 -0.6036013 -0.7621471 -0.368393 0.5323708 -0.8458945 -9.76607e-4 0.5333496 -0.7164108 -0.345784 -0.6059613 -0.7625548 0.3689476 0.5314018 -0.7164522 0.3462165 -0.6056653 -0.5252381 0.6645589 0.5314946 -0.2042962 0.8205725 0.5337826 -0.4957587 0.6234523 -0.6045913 -0.07159727 0.7064509 0.7041314 -0.353935 0.5636348 -0.7463551 0.1709084 0.5711697 0.8028422 -0.8146854 0.2294145 0.5325944 -0.2994242 -0.3019573 0.9050785 0.02295058 -0.4273332 0.9038029 0.1108762 -0.8573141 0.5027118 -0.3327857 -0.4810804 0.8110582 -0.002472043 -0.846907 0.5317354 0.4843337 -0.5056969 0.7139269 0.03708076 -0.8460218 0.5318574 -0.2525803 -0.865414 -0.4327375 0.473385 -0.752942 0.4571488 0.03683698 -0.9630727 0.2667098 0.03726333 -0.9993055 0 0.4371294 -0.8672394 0.2383565 -0.5369542 -0.7355424 -0.4131074 -0.6431372 -0.6428321 0.4161027 -0.5706523 -0.4742719 0.6703897 -0.3627868 -0.1914801 -0.9119875 0.4386846 -0.8986412 0 0.434042 -0.8554187 0.2826065 0.4420436 -0.7063115 0.5529208 0.05664336 -0.8999771 0.4322417 0.4434741 -0.8962872 0 0.6870223 -0.7266364 0 0.6827187 -0.700481 0.207898 0.7427659 -0.6695513 0 0.06677699 -0.955479 0.2874036 0.07480132 -0.9971985 0 0.0937854 -0.9453621 0.3122417 -0.3148632 -0.9491371 0 -0.1569608 -0.9876049 0 0.2714372 -0.9219833 0.2761677 0.3734615 -0.913618 0.1607133 0.7429962 -0.5778555 0.3376978 0.3866731 -0.9222169 0 0.3166078 -0.5960431 0.7378971 0.01440495 -0.9224992 0.3857302 -0.004181146 -0.9198286 0.3922982 -0.6241112 -0.547814 0.5571222 -0.2344194 -0.196728 0.952022 -0.6894544 0.5150995 0.5092398 -0.7112563 0.384881 0.5882018 -0.2305746 0.7309108 0.6423433 0.6482601 0.5021948 0.5723281 -0.3375113 0.7066404 -0.6218887 -0.3788657 0.6725522 0.6357156 0.05191367 0.7689087 0.6372475 0.04117029 0.7799775 -0.624452 0.502138 0.6084375 -0.6145415 0.2040243 0.7308862 0.6512907 0.4944821 0.6190029 0.6101827 -0.6914106 0.5536777 0.4641041 -0.8748746 0.3370888 -0.3478012 -0.5039319 0.5979309 -0.6233228 -0.2077431 0.7257122 -0.6558846 0.1577217 0.7046511 -0.6918026 0.4489111 0.5654956 -0.6918768 0.7197166 -0.002594172 -0.6942632 0.6510285 -0.3116891 -0.6921069 0.4536696 -0.5609754 -0.6924527 0.1662081 -0.7013642 -0.6931545 -0.1483217 -0.6961964 -0.7023613 -0.4715226 -0.5584415 -0.6825023 -0.9113602 0.09076368 -0.4014782 -0.7961226 0.001434385 -0.6051337 0.6500087 0.3155127 -0.6913324 -0.1904106 0.7714089 -0.6071839 -0.5252067 0.6716383 -0.5225515 -0.8265494 0.5628642 0 -0.4228793 0.6898341 -0.5876241 -0.7804459 0.6252234 0 -0.4424632 0.4435924 -0.7793921 -0.3965991 -0.9179919 0 -0.6394631 -0.3078444 -0.704499 -0.1616311 0.6824762 -0.7128126 -0.4382003 0.5502988 -0.7107403 -0.3905546 0.1196659 -0.912769 -0.2994242 -0.3019573 -0.9050785 -0.1614762 -0.3667167 -0.9162119 0.1533905 0.6701757 -0.7261789 -0.1415171 -0.4308686 -0.8912492 0.4279465 0.5361691 -0.7275883 0.6193301 0.2987849 -0.7260564 -0.4224132 -0.2056674 -0.8827616 0.6894024 0.001220762 -0.7243776 -0.4691129 9.1558e-5 -0.8831383 0.6200394 -0.3002533 -0.7248442 -0.4225977 0.203959 -0.8830696 0.4286106 -0.5373503 -0.7263247 0.1485393 -0.6723486 -0.7251782 -0.2933564 0.3699916 -0.8815035 -0.1561967 -0.6853367 -0.711278 0.3313149 0.5415607 -0.7726205 -0.6331894 -0.3058976 -0.7109838 -0.4380071 -0.5496452 -0.7113648 -0.1976447 0.5578674 -0.8060525 -0.6369606 0.3052504 -0.7078866 -0.7085394 0.001007139 -0.7056706 -0.4147272 0.0734905 -0.9069734 -0.7536115 -0.5469657 -0.3645522 -0.3627868 -0.1914801 0.9119875 -0.2285599 -0.7513271 0.6190865 -0.2657011 -0.8049161 -0.5305781 -0.4944049 -0.6254833 0.6036013 -0.5245667 -0.6631551 -0.5339056 -0.7621471 -0.368393 -0.5323708 -0.7164108 -0.345784 0.6059613 -0.8458945 -9.76607e-4 -0.5333496 -0.7961226 0.001434385 0.6051337 -0.7164522 0.3462165 0.6056653 -0.7625548 0.3689476 -0.5314018 -0.5252381 0.6645589 -0.5314946 -0.4957587 0.6234523 0.6045913 -0.2042962 0.8205725 -0.5337826 -0.1904106 0.7714089 0.6071839 -0.353935 0.5636348 0.7463551 0.1709084 0.5711697 -0.8028422 0.1108762 -0.8573141 -0.5027118 0.02295058 -0.4273332 -0.9038029 -0.3327857 -0.4810804 -0.8110582 -0.293683 -0.3684847 -0.8820257 -0.1128591 0.4597682 -0.8808383 0.03708076 -0.8460218 -0.5318574 -0.002472043 -0.846907 -0.5317354 0.4843337 -0.5056969 -0.7139269 0.473385 -0.752942 -0.4571488 0.03683698 -0.9630727 -0.2667098 -0.2525803 -0.865414 0.4327375 0.4371294 -0.8672394 -0.2383565 -0.5369542 -0.7355424 0.4131074 -0.6431372 -0.6428321 -0.4161027 -0.5706523 -0.4742719 -0.6703897 -0.0843541 -0.07825034 -0.9933586 0.434042 -0.8554187 -0.2826065 0.4420436 -0.7063115 -0.5529208 -0.004181146 -0.9198286 -0.3922982 0.05664336 -0.8999771 -0.4322417 0.6827187 -0.700481 -0.207898 0.06677699 -0.955479 -0.2874036 0.0937854 -0.9453621 -0.3122417 0.2714372 -0.9219833 -0.2761677 0.3734615 -0.913618 -0.1607133 0.5816093 -0.5672346 -0.5830742 0.7429962 -0.5778555 -0.3376978 0.3166078 -0.5960431 -0.7378971 0.01440495 -0.9224992 -0.3857302 -0.6241112 -0.547814 -0.5571222 -0.2344194 -0.196728 -0.952022 -0.8146854 0.2294145 -0.5325944 -0.7112563 0.384881 -0.5882018 -0.6894544 0.5150995 -0.5092398 -0.2305746 0.7309108 -0.6423433 0.2040243 0.7308862 -0.6512907 0.6482601 0.5021948 -0.5723281 -0.07159727 0.7064509 -0.7041314 -0.3375113 0.7066404 0.6218887 0.04117029 0.7799775 0.624452 0.05191367 0.7689087 -0.6372475 0.502138 0.6084375 0.6145415 -0.5252067 0.6716383 0.5225515 -0.6914106 0.5536777 -0.4641041 0.4944821 0.6190029 -0.6101827 -0.8748746 0.3370888 0.3478012 -0.5039319 0.5979309 0.6233228 -0.2077431 0.7257122 0.6558846 0.1577217 0.7046511 0.6918026 0.4489111 0.5654956 0.6918768 0.6500087 0.3155127 0.6913324 0.7197166 -0.002594172 0.6942632 0.6510285 -0.3116891 0.6921069 0.4536696 -0.5609754 0.6924527 0.1662081 -0.7013642 0.6931545 -0.1483217 -0.6961964 0.7023613 -0.4715226 -0.5584415 0.6825023 -0.6394631 -0.3078444 0.704499 -0.9113602 0.09076368 0.4014782 -0.4228793 0.6898341 0.5876241 -0.4424632 0.4435924 0.7793921 -0.8624743 0.5061009 0 0.5816093 -0.5672346 0.5830742 0.8024507 -0.5967184 0 -0.3788657 0.6725522 -0.6357156 0.0987913 -0.804064 0.5862776 0.9651327 -0.2617614 0 0.8938718 -0.2594117 0.3656485 0.9941801 0.1077313 0 0.9239415 0.09775334 0.3698329 0.8770638 0.4803739 0 0.8314762 0.4248634 0.3579645 0.5760588 0.8174083 0 0.5622276 0.7656085 0.3126403 0.2386019 0.924865 0.2961314 0.1093186 0.9500831 0.2922182 0.1341326 0.9909635 0 -0.3517051 0.9214404 0.1650792 0.1937656 -0.2551701 0.947282 0.3484681 -0.2763818 0.8956468 0.3888478 0.05426347 0.9197026 0.1794239 0.04599279 0.9826962 0.1692583 0.3606429 0.9172177 0.358147 0.3234462 0.8758502 0.3195353 0.6020204 0.7317572 0.1796364 0.6170384 0.7661556 0.421866 0.7601706 0.4941353 0.2257188 0.7910842 0.5685393 -0.01452708 -0.8420246 0.5392436 -0.003448665 -0.8412023 0.5407097 -0.2667961 0.01864701 0.9635726 -0.294116 0.1945616 0.9357572 -0.3167251 0.4293093 0.8458006 0.09341764 -0.3312497 0.9389072 0.1407825 -0.0306102 0.9895673 0.1330921 0.3042716 0.9432419 0.125617 0.5790104 0.8055851 0.2549244 0.966961 0 0.1105718 0.7984185 0.591863 -0.2657293 0.8347875 0.4822009 -0.2623762 0.9649658 0 0.6769694 -0.1440795 0.7217711 0.679028 0.1863519 0.7100663 0.6021072 0.4735922 0.6427889 0.0987913 -0.804064 -0.5862776 0.8938718 -0.2594117 -0.3656485 0.9239415 0.09775334 -0.3698329 0.8314762 0.4248634 -0.3579645 0.5622276 0.7656085 -0.3126403 0.2386019 0.924865 -0.2961314 0.1093186 0.9500831 -0.2922182 -0.3517051 0.9214404 -0.1650792 0.1937656 -0.2551701 -0.947282 0.1794239 0.04599279 -0.9826962 0.3888478 0.05426347 -0.9197026 0.1692583 0.3606429 -0.9172177 0.1796364 0.6170384 -0.7661556 0.3195353 0.6020204 -0.7317572 0.2257188 0.7910842 -0.5685393 0.421866 0.7601706 -0.4941353 -0.01452708 -0.8420246 -0.5392436 -0.003448665 -0.8412023 -0.5407097 -0.294116 0.1945616 -0.9357572 -0.2667961 0.01864701 -0.9635726 -0.3167251 0.4293093 -0.8458006 0.09341764 -0.3312497 -0.9389072 0.1407825 -0.0306102 -0.9895673 0.125617 0.5790104 -0.8055851 0.1330921 0.3042716 -0.9432419 0.1105718 0.7984185 -0.591863 -0.2657293 0.8347875 -0.4822009 0.358147 0.3234462 -0.8758502 0.679028 0.1863519 -0.7100663 0.6769694 -0.1440795 -0.7217711 0.6021072 0.4735922 -0.6427889 0.3484681 -0.2763818 -0.8956468</float_array>
          <technique_common>
            <accessor source="#Circle_032-mesh-normals-array" count="295" stride="3">
              <param name="X" type="float"/>
              <param name="Y" type="float"/>
              <param name="Z" type="float"/>
            </accessor>
          </technique_common>
        </source>
        <vertices id="Circle_032-mesh-vertices">
          <input semantic="POSITION" source="#Circle_032-mesh-positions"/>
        </vertices>
        <polylist material="Kunststoff_druckteile_004_002-material" count="422">
          <input semantic="VERTEX" source="#Circle_032-mesh-vertices" offset="0"/>
          <input semantic="NORMAL" source="#Circle_032-mesh-normals" offset="1"/>
          <vcount>3 3 3 3 3 3 3 3 3 3 3 3 3 3 3 3 3 3 3 3 3 3 3 3 3 3 3 3 3 3 3 3 3 3 3 3 3 3 3 3 3 3 3 3 3 3 3 3 3 3 3 3 3 3 3 3 3 3 3 3 3 3 3 3 3 3 3 3 3 3 3 3 3 3 3 3 3 3 3 3 3 3 3 3 3 3 3 3 3 3 3 3 3 3 3 3 3 3 3 3 3 3 3 3 3 3 3 3 3 3 3 3 3 3 3 3 3 3 3 3 3 3 3 3 3 3 3 3 3 3 3 3 3 3 3 3 3 3 3 3 3 3 3 3 3 3 3 3 3 3 3 3 3 3 3 3 3 3 3 3 3 3 3 3 3 3 3 3 3 3 3 3 3 3 3 3 3 3 3 3 3 3 3 3 3 3 3 3 3 3 3 3 3 3 3 3 3 3 3 3 3 3 3 3 3 3 3 3 3 3 3 3 3 3 3 3 3 3 3 3 3 3 3 3 3 3 3 3 3 3 3 3 3 3 3 3 3 3 3 3 3 3 3 3 3 3 3 3 3 3 3 3 3 3 3 3 3 3 3 3 3 3 3 3 3 3 3 3 3 3 3 3 3 3 3 3 3 3 3 3 3 3 3 3 3 3 3 3 3 3 3 3 3 3 3 3 3 3 3 3 3 3 3 3 3 3 3 3 3 3 3 3 3 3 3 3 3 3 3 3 3 3 3 3 3 3 3 3 3 3 3 3 3 3 3 3 3 3 3 3 3 3 3 3 3 3 3 3 3 3 3 3 3 3 3 3 3 3 3 3 3 3 3 3 3 3 3 3 3 3 3 3 3 3 3 3 3 3 3 3 3 3 3 3 3 3 3 3 3 3 3 3 3 3 3 3 3 3 3 3 3 3 3 3 3 3 3 3 3 3 3 3 3 3 3 3 3 3 3 3 3 3 </vcount>
          <p>11 0 22 1 36 2 36 2 22 1 24 3 10 4 21 5 11 0 9 6 20 7 21 5 8 8 19 9 9 6 7 10 18 11 8 8 6 12 17 13 7 10 5 14 16 15 17 13 4 16 15 17 16 15 3 18 14 19 4 16 1 20 49 21 2 22 13 23 35 24 0 25 12 26 36 2 13 23 40 27 41 28 33 29 41 28 42 30 32 31 42 30 43 32 32 31 43 32 44 33 31 34 44 33 45 35 29 36 45 35 46 37 29 36 46 37 47 38 28 39 47 38 48 40 26 41 2 22 39 42 3 18 0 25 50 43 49 21 37 44 25 45 23 46 37 44 24 3 25 45 60 47 41 28 40 27 21 5 20 7 42 30 20 7 19 9 43 32 19 9 18 11 43 32 18 11 17 13 45 35 17 13 16 15 45 35 16 15 15 17 47 38 15 17 14 19 47 38 25 45 24 3 51 48 38 49 25 45 52 50 52 50 51 48 54 51 53 52 52 50 55 53 55 53 54 51 195 54 56 55 55 53 195 54 54 51 51 48 59 56 51 48 24 3 58 57 24 3 22 1 57 58 58 57 57 58 60 47 34 59 59 56 40 27 56 55 196 60 63 61 53 52 56 55 62 62 23 46 62 62 64 63 38 49 53 52 23 46 63 61 204 64 207 65 62 62 63 61 65 66 207 65 208 67 65 66 64 63 208 67 66 68 66 68 210 69 67 70 67 70 212 71 214 72 68 73 214 72 69 74 68 73 69 74 73 75 69 74 216 76 73 75 67 70 68 73 71 77 66 68 67 70 70 78 64 63 66 68 61 79 36 2 37 44 92 80 36 2 92 80 95 81 50 43 98 82 109 83 49 21 50 43 109 83 39 42 49 21 108 84 14 19 39 42 107 85 14 19 107 85 48 40 26 41 48 40 111 86 111 86 112 87 114 88 113 89 114 88 115 90 105 91 112 87 48 40 115 90 116 92 110 93 108 84 114 88 105 91 109 83 116 92 108 84 110 93 116 92 109 83 13 23 0 25 131 94 12 26 13 23 131 94 11 0 12 26 130 95 10 4 11 0 129 96 9 6 10 4 128 97 8 8 9 6 127 98 7 10 8 8 125 99 6 12 7 10 124 100 5 14 6 12 124 100 4 16 5 14 123 101 3 18 4 16 122 102 2 22 3 18 121 103 1 20 2 22 120 104 0 25 1 20 118 105 29 36 124 100 30 106 30 106 125 99 31 34 31 34 126 107 127 98 32 31 127 98 128 97 33 29 128 97 129 96 28 39 123 101 124 100 27 108 122 102 123 101 26 41 121 103 122 102 117 109 274 110 132 111 132 111 289 112 133 113 194 114 54 51 133 113 130 95 132 111 129 96 59 56 34 59 54 51 129 96 133 113 54 51 130 95 131 94 132 111 118 105 117 109 131 94 118 105 119 115 117 109 113 89 115 90 117 109 26 41 111 86 117 109 119 115 120 104 26 41 121 103 26 41 120 104 148 116 149 117 173 118 173 118 174 119 161 120 147 121 148 116 158 122 146 123 147 121 158 122 145 124 146 123 156 125 144 126 145 124 155 127 143 128 144 126 154 129 142 130 143 128 154 129 141 131 142 130 153 132 140 133 141 131 151 134 138 135 139 136 186 137 150 138 137 139 172 140 149 117 150 138 173 118 177 141 171 142 170 143 178 144 170 143 169 145 179 146 169 145 180 147 180 147 168 148 181 149 181 149 167 150 166 151 182 152 166 151 183 153 183 153 165 154 184 155 184 155 164 156 163 157 139 136 140 133 176 158 137 139 138 135 186 137 174 119 160 159 162 160 174 119 162 160 161 120 200 161 177 141 178 144 158 122 178 144 179 146 157 162 179 146 180 147 156 125 180 147 155 127 155 127 181 149 182 152 154 129 182 152 153 132 153 132 183 153 184 155 152 163 184 155 151 134 162 160 189 164 188 165 175 166 190 167 189 164 189 164 192 168 191 169 190 167 193 170 192 168 192 168 195 54 191 169 193 170 196 60 195 54 191 169 199 171 188 165 188 165 198 172 161 120 161 120 197 173 159 174 198 172 177 141 200 161 171 142 177 141 199 171 193 170 203 175 196 60 190 167 202 176 193 170 160 159 201 177 205 178 175 166 160 159 190 167 203 175 206 179 207 65 202 176 205 178 206 179 207 65 206 179 208 67 205 178 209 180 208 67 209 180 211 181 210 69 211 181 213 182 214 72 213 182 215 183 214 72 213 182 219 184 220 185 215 183 220 185 216 76 211 181 218 186 213 182 209 180 217 187 211 181 205 178 201 177 209 180 173 118 246 188 174 119 173 118 249 189 246 188 187 190 264 191 252 192 186 137 263 193 264 191 176 158 260 194 263 193 151 134 262 195 176 158 151 134 185 196 262 195 163 157 266 197 185 196 266 197 268 198 269 199 268 198 270 200 269 199 260 194 262 195 185 196 270 200 272 201 265 202 263 193 260 194 269 199 264 191 263 193 271 203 265 202 264 191 271 203 150 138 287 204 137 139 149 117 286 205 287 204 148 116 285 206 286 205 147 121 284 207 285 206 146 123 283 208 284 207 145 124 282 209 283 208 144 126 281 210 145 124 143 128 280 211 144 126 142 130 279 212 280 211 141 131 278 213 279 212 140 133 277 214 278 213 139 136 276 215 277 214 138 135 275 216 276 215 137 139 273 217 138 135 166 151 167 150 280 211 167 150 168 148 281 210 168 148 169 145 283 208 169 145 170 143 284 207 170 143 171 142 285 206 165 154 166 151 280 211 164 156 165 154 279 212 163 157 164 156 278 213 272 201 288 218 274 110 288 218 290 219 289 112 194 114 291 220 290 219 286 205 285 206 288 218 199 171 191 169 171 142 285 206 171 142 191 169 286 205 288 218 287 204 273 217 287 204 272 201 273 217 272 201 275 216 268 198 266 197 272 201 163 157 272 201 266 197 275 216 272 201 163 157 277 214 276 215 163 157 12 26 11 0 36 2 37 44 36 2 24 3 21 5 22 1 11 0 10 4 9 6 21 5 19 9 20 7 9 6 18 11 19 9 8 8 17 13 18 11 7 10 6 12 5 14 17 13 5 14 4 16 16 15 14 19 15 17 4 16 49 21 39 42 2 22 35 24 50 43 0 25 36 2 35 24 13 23 34 59 40 27 33 29 33 29 41 28 32 31 43 32 31 34 32 31 44 33 30 106 31 34 30 106 44 33 29 36 46 37 28 39 29 36 47 38 27 108 28 39 27 108 47 38 26 41 39 42 14 19 3 18 1 20 0 25 49 21 25 45 38 49 23 46 22 1 21 5 60 47 21 5 41 28 60 47 41 28 21 5 42 30 42 30 20 7 43 32 18 11 44 33 43 32 44 33 18 11 45 35 16 15 46 37 45 35 46 37 16 15 47 38 14 19 48 40 47 38 52 50 25 45 51 48 53 52 38 49 52 50 55 53 52 50 54 51 56 55 53 52 55 53 54 51 194 114 195 54 196 60 56 55 195 54 51 48 58 57 59 56 24 3 57 58 58 57 22 1 60 47 57 58 40 27 58 57 60 47 59 56 58 57 40 27 196 60 204 64 63 61 56 55 63 61 62 62 61 79 23 46 64 63 53 52 62 62 23 46 65 66 63 61 207 65 64 63 62 62 65 66 208 67 64 63 65 66 208 67 210 69 66 68 210 69 212 71 67 70 68 73 67 70 214 72 214 72 216 76 69 74 72 221 68 73 73 75 216 76 221 222 73 75 68 73 72 221 71 77 67 70 71 77 70 78 66 68 70 78 61 79 98 82 110 93 109 83 108 84 49 21 109 83 105 91 39 42 108 84 39 42 105 91 107 85 48 40 112 87 111 86 113 89 111 86 114 88 114 88 116 92 115 90 107 85 105 91 48 40 117 109 115 90 110 93 114 88 112 87 105 91 116 92 114 88 108 84 0 25 118 105 131 94 130 95 12 26 131 94 129 96 11 0 130 95 128 97 10 4 129 96 127 98 9 6 128 97 126 107 8 8 127 98 8 8 126 107 125 99 7 10 125 99 124 100 123 101 5 14 124 100 122 102 4 16 123 101 121 103 3 18 122 102 120 104 2 22 121 103 119 115 1 20 120 104 1 20 119 115 118 105 124 100 125 99 30 106 125 99 126 107 31 34 32 31 31 34 127 98 33 29 32 31 128 97 34 59 33 29 129 96 29 36 28 39 124 100 28 39 27 108 123 101 27 108 26 41 122 102 274 110 289 112 132 111 289 112 291 220 133 113 291 220 194 114 133 113 132 111 133 113 129 96 34 59 129 96 54 51 117 109 132 111 131 94 111 86 113 89 117 109 117 109 119 115 26 41 159 174 148 116 173 118 159 174 173 118 161 120 148 116 159 174 158 122 157 162 146 123 158 122 146 123 157 162 156 125 145 124 156 125 155 127 144 126 155 127 154 129 153 132 142 130 154 129 152 163 141 131 153 132 141 131 152 163 151 134 139 136 176 158 186 137 137 139 187 190 172 140 150 138 172 140 173 118 178 144 177 141 170 143 179 146 178 144 169 145 169 145 168 148 180 147 168 148 167 150 181 149 182 152 181 149 166 151 166 151 165 154 183 153 165 154 164 156 184 155 185 196 184 155 163 157 140 133 151 134 176 158 187 190 137 139 186 137 160 159 175 166 162 160 159 174 200 161 158 122 200 161 178 144 158 122 157 162 158 122 179 146 156 125 157 162 180 147 180 147 181 149 155 127 154 129 155 127 182 152 182 152 183 153 153 132 152 163 153 132 184 155 184 155 185 196 151 134 161 120 162 160 188 165 162 160 175 166 189 164 188 165 189 164 191 169 189 164 190 167 192 168 195 54 194 114 191 169 192 168 193 170 195 54 199 171 198 172 188 165 198 172 197 173 161 120 197 173 200 161 159 174 197 173 198 172 200 161 177 141 198 172 199 171 203 175 204 64 196 60 202 176 203 175 193 170 202 176 160 159 205 178 160 159 202 176 190 167 204 64 203 175 207 65 203 175 202 176 206 179 206 179 205 178 208 67 209 180 210 69 208 67 211 181 212 71 210 69 212 71 211 181 214 72 215 183 216 76 214 72 215 183 213 182 220 185 220 185 221 222 216 76 218 186 219 184 213 182 217 187 218 186 211 181 201 177 217 187 209 180 264 191 265 202 252 192 187 190 186 137 264 191 186 137 176 158 263 193 262 195 260 194 176 158 266 197 267 223 185 196 267 223 266 197 269 199 270 200 271 203 269 199 267 223 260 194 185 196 271 203 270 200 265 202 260 194 267 223 269 199 263 193 269 199 271 203 287 204 273 217 137 139 150 138 149 117 287 204 149 117 148 116 286 205 148 116 147 121 285 206 147 121 146 123 284 207 146 123 145 124 283 208 281 210 282 209 145 124 280 211 281 210 144 126 143 128 142 130 280 211 142 130 141 131 279 212 141 131 140 133 278 213 140 133 139 136 277 214 139 136 138 135 276 215 273 217 275 216 138 135 167 150 281 210 280 211 168 148 282 209 281 210 282 209 168 148 283 208 283 208 169 145 284 207 284 207 170 143 285 206 279 212 165 154 280 211 278 213 164 156 279 212 277 214 163 157 278 213 288 218 289 112 274 110 290 219 291 220 289 112 191 169 194 114 290 219 285 206 290 219 288 218 290 219 285 206 191 169 287 204 288 218 272 201 270 200 268 198 272 201 276 215 275 216 163 157</p>
        </polylist>
        <polylist material="Gummi_007_002-material" count="172">
          <input semantic="VERTEX" source="#Circle_032-mesh-vertices" offset="0"/>
          <input semantic="NORMAL" source="#Circle_032-mesh-normals" offset="1"/>
          <vcount>3 3 3 3 3 3 3 3 3 3 3 3 3 3 3 3 3 3 3 3 3 3 3 3 3 3 3 3 3 3 3 3 3 3 3 3 3 3 3 3 3 3 3 3 3 3 3 3 3 3 3 3 3 3 3 3 3 3 3 3 3 3 3 3 3 3 3 3 3 3 3 3 3 3 3 3 3 3 3 3 3 3 3 3 3 3 3 3 3 3 3 3 3 3 3 3 3 3 3 3 3 3 3 3 3 3 3 3 3 3 3 3 3 3 3 3 3 3 3 3 3 3 3 3 3 3 3 3 3 3 3 3 3 3 3 3 3 3 3 3 3 3 3 3 3 3 3 3 3 3 3 3 3 3 3 3 3 3 3 3 3 3 3 3 3 3 3 3 3 3 3 3 </vcount>
          <p>70 78 71 77 90 224 73 75 221 222 223 225 74 226 223 225 225 227 75 228 225 227 227 229 76 230 227 229 229 231 77 232 229 231 78 233 104 234 259 235 79 236 90 224 71 77 80 237 80 237 81 238 83 239 82 240 83 239 84 241 84 241 85 242 87 243 86 244 87 243 89 245 78 233 88 246 77 232 37 44 23 46 91 247 23 46 61 79 94 248 35 24 93 249 97 250 35 24 36 2 93 249 61 79 70 78 94 248 50 43 96 251 98 82 92 80 91 247 95 81 90 224 99 252 94 248 94 248 99 252 91 247 90 224 80 237 99 252 100 253 102 254 97 250 103 255 96 251 102 254 82 240 84 241 100 253 86 244 103 255 102 254 99 252 100 253 93 249 80 237 82 240 99 252 78 233 231 256 104 234 88 246 106 257 103 255 106 257 101 258 98 82 96 251 103 255 98 82 106 257 104 234 101 258 88 246 78 233 104 234 98 82 101 258 79 236 117 109 233 259 274 110 233 259 117 109 110 93 85 242 83 239 134 260 75 228 135 261 74 226 87 243 85 242 135 261 76 230 136 262 75 228 89 245 87 243 136 262 76 230 77 232 89 245 83 239 81 238 134 260 72 221 134 260 71 77 72 221 73 75 134 260 217 187 244 263 218 186 220 185 222 264 223 225 222 264 224 265 225 227 224 265 226 266 227 229 226 266 228 267 229 231 228 267 230 268 229 231 258 269 232 270 259 235 244 263 234 271 218 186 234 271 236 272 237 273 236 272 238 274 237 273 238 274 240 275 241 276 240 275 242 277 243 278 230 268 228 267 242 277 174 119 246 188 245 279 160 159 245 279 248 280 172 140 251 281 247 282 172 140 247 282 173 118 201 177 248 280 217 187 187 190 252 192 250 283 246 188 249 189 245 279 244 263 248 280 253 284 248 280 245 279 253 284 244 263 253 284 234 271 254 285 247 282 251 281 257 286 256 287 250 283 236 272 254 285 238 274 240 275 238 274 256 287 253 284 249 189 247 282 234 271 253 284 236 272 230 268 258 269 231 256 242 277 240 275 257 286 261 288 257 286 252 192 250 283 252 192 257 286 261 288 255 289 258 269 242 277 261 288 258 269 252 192 265 202 232 270 272 201 274 110 233 259 233 259 232 270 265 202 239 290 293 291 292 292 224 265 222 264 293 291 241 276 294 293 293 291 226 266 224 265 294 293 243 278 294 293 241 276 226 266 294 293 243 278 237 273 292 292 235 294 219 184 218 186 292 292 219 184 292 292 220 185 74 226 73 75 223 225 75 228 74 226 225 227 76 230 75 228 227 229 77 232 76 230 229 231 229 231 231 256 78 233 259 235 233 259 79 236 71 77 81 238 80 237 82 240 80 237 83 239 83 239 85 242 84 241 86 244 84 241 87 243 88 246 86 244 89 245 88 246 89 245 77 232 92 80 37 44 91 247 91 247 23 46 94 248 50 43 35 24 96 251 35 24 97 250 96 251 36 2 95 81 93 249 70 78 90 224 94 248 99 252 95 81 91 247 93 249 100 253 97 250 96 251 97 250 102 254 84 241 102 254 100 253 84 241 86 244 102 254 95 81 99 252 93 249 82 240 100 253 99 252 231 256 259 235 104 234 86 244 88 246 103 255 103 255 106 257 98 82 104 234 79 236 101 258 106 257 88 246 104 234 110 93 98 82 79 236 79 236 233 259 110 93 135 261 85 242 134 260 135 261 134 260 74 226 136 262 87 243 135 261 136 262 135 261 75 228 136 262 76 230 89 245 134 260 81 238 71 77 73 75 74 226 134 260 221 222 220 185 223 225 223 225 222 264 225 227 225 227 224 265 227 229 227 229 226 266 229 231 230 268 231 256 229 231 232 270 233 259 259 235 234 271 235 294 218 186 235 294 234 271 237 273 238 274 239 290 237 273 239 290 238 274 241 276 241 276 240 275 243 278 228 267 243 278 242 277 160 159 174 119 245 279 201 177 160 159 248 280 187 190 250 283 172 140 250 283 251 281 172 140 247 282 249 189 173 118 248 280 244 263 217 187 245 279 249 189 253 284 256 287 254 285 251 281 256 287 251 281 250 283 254 285 256 287 238 274 257 286 240 275 256 287 254 285 253 284 247 282 253 284 254 285 236 272 258 269 259 235 231 256 261 288 242 277 257 286 255 289 261 288 252 192 255 289 232 270 258 269 230 268 242 277 258 269 255 289 252 192 232 270 272 201 233 259 265 202 237 273 239 290 292 292 222 264 292 292 293 291 239 290 241 276 293 291 224 265 293 291 294 293 228 267 226 266 243 278 218 186 235 294 292 292 292 292 222 264 220 185</p>
        </polylist>
      </mesh>
    </geometry>
  </library_geometries>
  <library_controllers/>
  <library_visual_scenes>
    <visual_scene id="Scene" name="Scene">
      <node id="VIS_hollie_right_hand_t" name="VIS_hollie_right_hand_t" type="NODE">
        <instance_geometry url="#Circle_032-mesh" name="VIS_hollie_right_hand_t">
          <bind_material>
            <technique_common>
              <instance_material symbol="Kunststoff_druckteile_004_002-material" target="#Kunststoff_druckteile_004_002-material"/>
              <instance_material symbol="Gummi_007_002-material" target="#Gummi_007_002-material"/>
            </technique_common>
          </bind_material>
        </instance_geometry>
      </node>
    </visual_scene>
  </library_visual_scenes>
  <scene>
    <instance_visual_scene url="#Scene"/>
  </scene>
</COLLADA>