<?xml version="1.0" encoding="utf-8"?>
<COLLADA xmlns="http://www.collada.org/2005/11/COLLADASchema" version="1.4.1">
  <asset>
    <contributor>
      <author>Blender User</author>
      <authoring_tool>Blender 2.77.0 commit date:2016-04-05, commit time:18:12, hash:abf6f08</authoring_tool>
    </contributor>
    <created>2017-05-11T17:24:19</created>
    <modified>2017-05-11T17:24:19</modified>
    <unit name="meter" meter="1"/>
    <up_axis>Z_UP</up_axis>
  </asset>
  <library_images>
    <image id="PBRFULL_Hip-material_Base_Color_jpg" name="PBRFULL_Hip-material_Base_Color_jpg">
      <init_from>PBRFULL_Hip-material_Base_Color.jpg</init_from>
    </image>
  </library_images>
  <library_effects>
    <effect id="PBRFULL_Shoulder-R-effect">
      <profile_COMMON>
        <newparam sid="PBRFULL_Hip-material_Base_Color_jpg-surface">
          <surface type="2D">
            <init_from>PBRFULL_Hip-material_Base_Color_jpg</init_from>
          </surface>
        </newparam>
        <newparam sid="PBRFULL_Hip-material_Base_Color_jpg-sampler">
          <sampler2D>
            <source>PBRFULL_Hip-material_Base_Color_jpg-surface</source>
          </sampler2D>
        </newparam>
        <technique sid="common">
          <phong>
            <emission>
              <color sid="emission">0 0 0 1</color>
            </emission>
            <ambient>
              <color sid="ambient">0 0 0 1</color>
            </ambient>
            <diffuse>
              <texture texture="PBRFULL_Hip-material_Base_Color_jpg-sampler"/>
            </diffuse>
            <specular>
              <color sid="specular">0.25 0.25 0.25 1</color>
            </specular>
            <shininess>
              <float sid="shininess">50</float>
            </shininess>
            <index_of_refraction>
              <float sid="index_of_refraction">1</float>
            </index_of_refraction>
          </phong>
        </technique>
      </profile_COMMON>
    </effect>
  </library_effects>
  <library_materials>
    <material id="PBRFULL_Shoulder-R-material" name="PBRFULL_Shoulder-R">
      <instance_effect url="#PBRFULL_Shoulder-R-effect"/>
    </material>
  </library_materials>
  <library_geometries>
    <geometry id="Cylinder-mesh" name="Cylinder">
      <mesh>
        <source id="Cylinder-mesh-positions">
          <float_array id="Cylinder-mesh-positions-array" count="198">0 0 -0.005499899 0.01186317 0.02864021 -0.005499899 0 0.03099977 -0.005499899 -0.01186317 0.02864027 -0.005499899 -0.02192026 0.02192026 -0.005499899 -0.02864027 0.01186317 -0.005499899 -0.03099977 0 -0.005499899 -0.02864021 -0.01186317 -0.005499899 -0.02192026 -0.02192026 -0.005499899 -0.01186317 -0.02864027 -0.005499899 0 -0.03099977 -0.005499899 0.01186317 -0.02864027 -0.005499899 0.02192026 -0.02192026 -0.005499899 0.02864027 -0.01186317 -0.005499899 0.03099977 0 -0.005499899 0.02864027 0.01186317 -0.005499899 0.02192026 0.02192026 -0.005499899 0 0 0.005499899 0.01186323 0.02864021 0.005499899 0 0.03099977 0.005499899 -0.01186305 0.02864027 0.005499899 -0.0219202 0.02192032 0.005499899 -0.02864021 0.01186323 0.005499899 -0.03099977 0 0.005499899 -0.02864027 -0.01186311 0.005499899 -0.02192032 -0.02192026 0.005499899 -0.01186323 -0.02864021 0.005499899 0 -0.03099977 0.005499899 0.01186311 -0.02864027 0.005499899 0.02192026 -0.02192032 0.005499899 0.02864021 -0.01186317 0.005499899 0.03099977 0 0.005499899 0.02864027 0.01186311 0.005499899 0.02192032 0.02192026 0.005499899 0.02192026 0.02192026 -0.005499899 0.02864027 0.01186317 -0.005499899 0.03099977 0 -0.005499899 0.02864027 -0.01186317 -0.005499899 0.02192026 -0.02192026 -0.005499899 0.01186317 -0.02864027 -0.005499899 0 -0.03099977 -0.005499899 -0.01186317 -0.02864027 -0.005499899 -0.02192026 -0.02192026 -0.005499899 -0.02864021 -0.01186317 -0.005499899 -0.03099977 0 -0.005499899 -0.02864027 0.01186317 -0.005499899 -0.02192026 0.02192026 -0.005499899 -0.01186317 0.02864027 -0.005499899 0 0.03099977 -0.005499899 0.01186317 0.02864021 -0.005499899 0.02192032 0.02192026 0.005499899 0.02864027 0.01186311 0.005499899 0.03099977 0 0.005499899 0.02864021 -0.01186317 0.005499899 0.02192026 -0.02192032 0.005499899 0.01186311 -0.02864027 0.005499899 0 -0.03099977 0.005499899 -0.01186323 -0.02864021 0.005499899 -0.02192032 -0.02192026 0.005499899 -0.02864027 -0.01186311 0.005499899 -0.03099977 0 0.005499899 -0.02864021 0.01186323 0.005499899 -0.0219202 0.02192032 0.005499899 -0.01186305 0.02864027 0.005499899 0 0.03099977 0.005499899 0.01186323 0.02864021 0.005499899</float_array>
          <technique_common>
            <accessor source="#Cylinder-mesh-positions-array" count="66" stride="3">
              <param name="X" type="float"/>
              <param name="Y" type="float"/>
              <param name="Z" type="float"/>
            </accessor>
          </technique_common>
        </source>
        <source id="Cylinder-mesh-normals">
          <float_array id="Cylinder-mesh-normals-array" count="93">0 0 1 0 0 1 0 0 1 0 0 1 0 0 1 0 0 1 0 0 1 0 0 1 0 0 1 0.7071068 0.7071068 0 0.9238803 0.3826816 0 1 0 0 0.9238803 -0.3826816 0 0.7071068 -0.7071068 0 0.3826816 -0.9238803 0 0 -1 0 -0.3826816 -0.9238803 0 -0.7071068 -0.7071068 0 -0.9238803 -0.3826816 0 -1 0 0 -0.9238803 0.3826816 0 -0.7071068 0.7071068 0 -0.3826816 0.9238803 0 0 1 0 0.3826816 0.9238803 0 0 0 -1 0 0 -1 0 0 -1 0 0 -1 0 0 -1 0 0 -1</float_array>
          <technique_common>
            <accessor source="#Cylinder-mesh-normals-array" count="31" stride="3">
              <param name="X" type="float"/>
              <param name="Y" type="float"/>
              <param name="Z" type="float"/>
            </accessor>
          </technique_common>
        </source>
        <source id="Cylinder-mesh-map-0">
          <float_array id="Cylinder-mesh-map-0-array" count="384">0.217545 0.7824552 0.434946 0.825699 0.4018487 0.9056029 0.217545 0.7824552 0.4018487 0.9056029 0.3406921 0.9667586 0.217545 0.7824552 0.3406921 0.9667586 0.2607892 0.9998559 0.217545 0.7824552 0.2607892 0.9998559 0.1743015 0.9998559 0.217545 0.7824552 0.1743015 0.9998559 0.0943973 0.9667588 0.217545 0.7824552 0.0943973 0.9667588 0.03324156 0.9056022 0.217545 0.7824552 0.03324156 0.9056022 1.44058e-4 0.825699 0.217545 0.7824552 1.44058e-4 0.825699 1.44109e-4 0.7392113 0.217545 0.7824552 1.44109e-4 0.7392113 0.03324145 0.6593074 0.217545 0.7824552 0.03324145 0.6593074 0.09439796 0.5981518 0.217545 0.7824552 0.09439796 0.5981518 0.1743012 0.5650542 0.217545 0.7824552 0.1743012 0.5650542 0.2607889 0.5650542 0.217545 0.7824552 0.2607889 0.5650542 0.3406931 0.5981519 0.217545 0.7824552 0.3406931 0.5981519 0.4018485 0.6593081 0.217545 0.7824552 0.4018485 0.6593081 0.4349461 0.7392113 0.217545 0.7824552 0.4349461 0.7392113 0.434946 0.825699 0.354804 0.5828005 0.3590365 0.6823796 0.3149312 0.6397874 0.4174472 0.6450682 0.3833499 0.7382155 0.3590365 0.6823796 0.4512336 0.7263018 0.3842254 0.7986167 0.3833499 0.7382155 0.4509935 0.8137711 0.362196 0.8536853 0.3842254 0.7986167 0.4169347 0.8936378 0.3199592 0.894972 0.362196 0.8536853 0.3542793 0.9530676 0.2641749 0.9161741 0.3199592 0.894972 0.2737976 0.9831233 0.2023119 0.9141676 0.2641749 0.9161741 0.1882045 0.9817747 0.1444674 0.8950077 0.2023119 0.9141676 0.1073065 0.9519606 0.1001667 0.8549805 0.1444674 0.8950077 0.04369872 0.8929631 0.0755558 0.8006942 0.1001667 0.8549805 0.008445858 0.8133622 0.07439458 0.7407769 0.0755558 0.8006942 0.007398188 0.7260321 0.09693503 0.6847437 0.07439458 0.7407769 0.0406531 0.6449343 0.1397314 0.6414325 0.09693503 0.6847437 0.1029148 0.5827669 0.1962174 0.6176247 0.1397314 0.6414325 0.1845219 0.5491093 0.2577494 0.6170367 0.1962174 0.6176247 0.3149312 0.6397874 0.2729833 0.5491092 0.354804 0.5828005 0.4335007 0.7243306 0.2160997 0.7675731 0.400404 0.6444265 0.2160997 0.7675731 0.3392481 0.5832707 0.400404 0.6444265 0.2160997 0.7675731 0.2593448 0.5501723 0.3392481 0.5832707 0.2160997 0.7675731 0.1728572 0.5501723 0.2593448 0.5501723 0.2160997 0.7675731 0.09295272 0.5832688 0.1728572 0.5501723 0.2160997 0.7675731 0.03179723 0.6444247 0.09295272 0.5832688 0.2160997 0.7675731 -0.001300752 0.7243284 0.03179723 0.6444247 0.2160997 0.7675731 -0.00130105 0.8108158 -0.001300752 0.7243284 0.2160997 0.7675731 0.0317955 0.8907203 -0.00130105 0.8108158 0.2160997 0.7675731 0.09295147 0.9518757 0.0317955 0.8907203 0.2160997 0.7675731 0.1728549 0.984974 0.09295147 0.9518757 0.2160997 0.7675731 0.2593424 0.984974 0.1728549 0.984974 0.2160997 0.7675731 0.3392468 0.9518775 0.2593424 0.984974 0.2160997 0.7675731 0.4004023 0.8907216 0.3392468 0.9518775 0.2160997 0.7675731 0.4335007 0.8108182 0.4004023 0.8907216 0.2160997 0.7675731 0.4335007 0.7243306 0.4335007 0.8108182 0.354804 0.5828005 0.4174472 0.6450682 0.3590365 0.6823796 0.4174472 0.6450682 0.4512336 0.7263018 0.3833499 0.7382155 0.4512336 0.7263018 0.4509935 0.8137711 0.3842254 0.7986167 0.4509935 0.8137711 0.4169347 0.8936378 0.362196 0.8536853 0.4169347 0.8936378 0.3542793 0.9530676 0.3199592 0.894972 0.3542793 0.9530676 0.2737976 0.9831233 0.2641749 0.9161741 0.2737976 0.9831233 0.1882045 0.9817747 0.2023119 0.9141676 0.1882045 0.9817747 0.1073065 0.9519606 0.1444674 0.8950077 0.1073065 0.9519606 0.04369872 0.8929631 0.1001667 0.8549805 0.04369872 0.8929631 0.008445858 0.8133622 0.0755558 0.8006942 0.008445858 0.8133622 0.007398188 0.7260321 0.07439458 0.7407769 0.007398188 0.7260321 0.0406531 0.6449343 0.09693503 0.6847437 0.0406531 0.6449343 0.1029148 0.5827669 0.1397314 0.6414325 0.1029148 0.5827669 0.1845219 0.5491093 0.1962174 0.6176247 0.1845219 0.5491093 0.2729833 0.5491092 0.2577494 0.6170367 0.3149312 0.6397874 0.2577494 0.6170367 0.2729833 0.5491092</float_array>
          <technique_common>
            <accessor source="#Cylinder-mesh-map-0-array" count="192" stride="2">
              <param name="S" type="float"/>
              <param name="T" type="float"/>
            </accessor>
          </technique_common>
        </source>
        <vertices id="Cylinder-mesh-vertices">
          <input semantic="POSITION" source="#Cylinder-mesh-positions"/>
        </vertices>
        <polylist material="PBRFULL_Shoulder-R-material" count="64">
          <input semantic="VERTEX" source="#Cylinder-mesh-vertices" offset="0"/>
          <input semantic="NORMAL" source="#Cylinder-mesh-normals" offset="1"/>
          <input semantic="TEXCOORD" source="#Cylinder-mesh-map-0" offset="2" set="0"/>
          <vcount>3 3 3 3 3 3 3 3 3 3 3 3 3 3 3 3 3 3 3 3 3 3 3 3 3 3 3 3 3 3 3 3 3 3 3 3 3 3 3 3 3 3 3 3 3 3 3 3 3 3 3 3 3 3 3 3 3 3 3 3 3 3 3 3 </vcount>
          <p>17 0 0 33 0 1 18 0 2 17 1 3 18 1 4 19 1 5 17 2 6 19 2 7 20 2 8 17 2 9 20 2 10 21 2 11 17 3 12 21 3 13 22 3 14 17 2 15 22 2 16 23 2 17 17 2 18 23 2 19 24 2 20 17 4 21 24 4 22 25 4 23 17 5 24 25 5 25 26 5 26 17 6 27 26 6 28 27 6 29 17 2 30 27 2 31 28 2 32 17 2 33 28 2 34 29 2 35 17 7 36 29 7 37 30 7 38 17 2 39 30 2 40 31 2 41 17 2 42 31 2 43 32 2 44 17 8 45 32 8 46 33 8 47 50 9 48 35 10 49 34 9 50 51 10 51 36 11 52 35 10 53 52 11 54 37 12 55 36 11 56 53 12 57 38 13 58 37 12 59 54 13 60 39 14 61 38 13 62 55 14 63 40 15 64 39 14 65 56 15 66 41 16 67 40 15 68 57 16 69 42 17 70 41 16 71 58 17 72 43 18 73 42 17 74 59 18 75 44 19 76 43 18 77 60 19 78 45 20 79 44 19 80 61 20 81 46 21 82 45 20 83 62 21 84 47 22 85 46 21 86 63 22 87 48 23 88 47 22 89 64 23 90 49 24 91 48 23 92 34 9 93 65 24 94 50 9 95 16 25 96 0 25 97 1 25 98 0 26 99 2 26 100 1 26 101 0 27 102 3 27 103 2 27 104 0 27 105 4 27 106 3 27 107 0 28 108 5 28 109 4 28 110 0 27 111 6 27 112 5 27 113 0 27 114 7 27 115 6 27 116 0 29 117 8 29 118 7 29 119 0 27 120 9 27 121 8 27 122 0 27 123 10 27 124 9 27 125 0 27 126 11 27 127 10 27 128 0 27 129 12 27 130 11 27 131 0 30 132 13 30 133 12 30 134 0 27 135 14 27 136 13 27 137 0 27 138 15 27 139 14 27 140 0 30 141 16 30 142 15 30 143 50 9 144 51 10 145 35 10 146 51 10 147 52 11 148 36 11 149 52 11 150 53 12 151 37 12 152 53 12 153 54 13 154 38 13 155 54 13 156 55 14 157 39 14 158 55 14 159 56 15 160 40 15 161 56 15 162 57 16 163 41 16 164 57 16 165 58 17 166 42 17 167 58 17 168 59 18 169 43 18 170 59 18 171 60 19 172 44 19 173 60 19 174 61 20 175 45 20 176 61 20 177 62 21 178 46 21 179 62 21 180 63 22 181 47 22 182 63 22 183 64 23 184 48 23 185 64 23 186 65 24 187 49 24 188 34 9 189 49 24 190 65 24 191</p>
        </polylist>
      </mesh>
    </geometry>
  </library_geometries>
  <library_controllers/>
  <library_visual_scenes>
    <visual_scene id="Scene" name="Scene">
      <node id="r_shoulder_1" name="r_shoulder_1" type="NODE">
        <matrix sid="transform">1 0 0 0 0 1 0 0 0 0 1 0 0 0 0 1</matrix>
        <node id="r_shoulder_1_mesh" name="r_shoulder_1_mesh" type="NODE">
          <matrix sid="transform">1 0 0 0 0 1 0 0 0 0 1 -0.07224 0 0 0 1</matrix>
          <instance_geometry url="#Cylinder-mesh" name="r_shoulder_1_mesh">
            <bind_material>
              <technique_common>
                <instance_material symbol="PBRFULL_Shoulder-R-material" target="#PBRFULL_Shoulder-R-material"/>
              </technique_common>
            </bind_material>
          </instance_geometry>
        </node>
      </node>
    </visual_scene>
  </library_visual_scenes>
  <scene>
    <instance_visual_scene url="#Scene"/>
  </scene>
</COLLADA>