<?xml version="1.0" encoding="UTF-8"?>
<COLLADA xmlns="http://www.collada.org/2005/11/COLLADASchema" version="1.4.1">
    <asset>
        <contributor>
            <author>VCGLab</author>
            <authoring_tool>VCGLib | MeshLab</authoring_tool>
        </contributor>
        <up_axis>Y_UP</up_axis>
        <created>jeu. févr. 8 14:37:53 2018</created>
        <modified>jeu. févr. 8 14:37:53 2018</modified>
    </asset>
    <library_images/>
    <library_materials/>
    <library_effects/>
    <library_geometries>
        <geometry id="shape0-lib" name="shape0">
            <mesh>
                <source id="shape0-lib-positions" name="position">
                    <float_array id="shape0-lib-positions-array" count="120">0 -66 15 0 -66 0 0 -63 0 0 -63 15 36.7 -63 0 36.7 -63 15 36.7 -66 0 36.7 -66 15 56.7 -66 0 56.7 -66 15 71.7579 -49.65 0 71.7579 -49.65 15 71.7579 -39.65 0 71.7579 -39.65 15 80.7 -30 0 80.7 -30 15 80.7 30 0 80.7 30 15 71.7579 40 0 71.7579 40 15 71.7579 50 0 71.7579 50 15 56.7 66 15 56.7 66 0 36.7 66 0 36.7 66 15 36.7 63 0 36.7 63 15 0 63 0 0 63 15 0 66 0 0 66 15 -15 66 0 -15 66 15 -35 50 0 -35 50 15 -35 -50 0 -35 -50 15 -15 -66 0 -15 -66 15</float_array>
                    <technique_common>
                        <accessor count="40" source="#shape0-lib-positions-array" stride="3">
                            <param name="X" type="float"/>
                            <param name="Y" type="float"/>
                            <param name="Z" type="float"/>
                        </accessor>
                    </technique_common>
                </source>
                <source id="shape0-lib-normals" name="normal">
                    <float_array id="shape0-lib-normals-array" count="228">1 0 0 1 0 0 0 -1 0 0 -1 0 -1 0 0 -1 0 0 0 -1 0 0 -1 0 0.735575 -0.677444 0 0.735575 -0.677444 0 1 0 0 1 0 0 0.733499 -0.679691 0 0.733499 -0.679691 0 1 0 0 1 0 0 0.745436 0.666577 0 0.745436 0.666577 0 1 0 0 1 0 0 0.728221 0.685342 0 0.728221 0.685342 0 0 1 0 0 1 0 -1 0 0 -1 0 0 0 1 0 0 1 0 1 0 0 1 0 0 0 1 0 0 1 0 -0.624695 0.780869 0 -0.624695 0.780869 0 -1 0 0 -1 0 0 -0.624695 -0.780869 0 -0.624695 -0.780869 0 0 -1 0 0 -1 0 0 0 -1 0 0 -1 0 0 -1 0 0 -1 0 0 -1 0 0 -1 0 0 -1 0 0 -1 0 0 -1 0 0 -1 0 0 -1 0 0 -1 0 0 -1 0 0 -1 0 0 -1 0 0 -1 0 0 -1 0 0 -1 0 0 1 0 0 1 0 0 1 0 0 1 0 0 1 0 0 1 0 0 1 0 0 1 0 0 1 0 0 1 0 0 1 0 0 1 0 0 1 0 0 1 0 0 1 0 0 1 0 0 1 0 0 1</float_array>
                    <technique_common>
                        <accessor count="76" source="#shape0-lib-normals-array" stride="3">
                            <param name="X" type="float"/>
                            <param name="Y" type="float"/>
                            <param name="Z" type="float"/>
                        </accessor>
                    </technique_common>
                </source>
                <source id="shape0-lib-vcolor" name="vcolor">
                    <float_array id="shape0-lib-vcolor-array" count="120">0.0823529 0.0980392 0.101961 0 0 0.00784314 0 0 0.00784314 0.0156863 0 0 0.215686 0.207843 0.219608 0.0235294 0.027451 0.0352941 0.0235294 0.0156863 0.027451 0.0392157 0.0431373 0.0509804 0.184314 0.180392 0.211765 0.00392157 0.00392157 0.00392157 0.196078 0.172549 0.180392 0 0.00392157 0 0.243137 0.243137 0.243137 0 0 0 0 0.00392157 0 0.145098 0.145098 0.145098 0.0941176 0.0941176 0.0941176 0.0235294 0.0235294 0.0313725 0.00392157 0.00392157 0.0117647 0.054902 0.0705882 0.0745098 0.00392157 0.00392157 0.0117647 0 0 0.00784314 0.235294 0.243137 0.239216 0.352941 0.372549 0.384314 0.0117647 0.00784314 0 0.239216 0.243137 0.258824 0.231373 0.231373 0.239216 0.294118 0.27451 0.298039 0.172549 0.172549 0.180392 0.32549 0.333333 0.321569 0.231373 0.247059 0.243137 0.196078 0.203922 0.2 0 0.00392157 0.00784314 0.388235 0.388235 0.380392 0 0.0117647 0.0235294 0.243137 0.262745 0.27451 0.00392157 0.00392157 0.0117647 0.262745 0.266667 0.286275 0.156863 0.141176 0.145098 0.00392157 0 0</float_array>
                    <technique_common>
                        <accessor count="40" source="#shape0-lib-vcolor-array" stride="3">
                            <param name="R" type="float"/>
                            <param name="G" type="float"/>
                            <param name="B" type="float"/>
                        </accessor>
                    </technique_common>
                </source>
                <vertices id="shape0-lib-vertices">
                    <input semantic="POSITION" source="#shape0-lib-positions"/>
                </vertices>
                <triangles count="76">
                    <input offset="0" semantic="VERTEX" source="#shape0-lib-vertices"/>
                    <input offset="1" semantic="COLOR" source="#shape0-lib-vcolor"/>
                    <input offset="2" semantic="NORMAL" source="#shape0-lib-normals"/>
                    <p>0 0 0 1 1 0 2 2 0 3 3 1 0 0 1 2 2 1 3 3 2 2 2 2 4 4 2 5 5 3 3 3 3 4 4 3 5 5 4 4 4 4 6 6 4 7 7 5 5 5 5 6 6 5 7 7 6 6 6 6 8 8 6 9 9 7 7 7 7 8 8 7 9 9 8 8 8 8 10 10 8 11 11 9 9 9 9 10 10 9 11 11 10 10 10 10 12 12 10 13 13 11 11 11 11 12 12 11 13 13 12 12 12 12 14 14 12 15 15 13 13 13 13 14 14 13 15 15 14 14 14 14 16 16 14 17 17 15 15 15 15 16 16 15 17 17 16 16 16 16 18 18 16 19 19 17 17 17 17 18 18 17 19 19 18 18 18 18 20 20 18 21 21 19 19 19 19 20 20 19 21 21 20 20 20 20 22 22 20 22 22 21 20 20 21 23 23 21 22 22 22 23 23 22 24 24 22 25 25 23 22 22 23 24 24 23 25 25 24 24 24 24 26 26 24 27 27 25 25 25 25 26 26 25 27 27 26 26 26 26 28 28 26 29 29 27 27 27 27 28 28 27 29 29 28 28 28 28 30 30 28 31 31 29 29 29 29 30 30 29 31 31 30 30 30 30 32 32 30 33 33 31 31 31 31 32 32 31 33 33 32 32 32 32 34 34 32 35 35 33 33 33 33 34 34 33 35 35 34 34 34 34 36 36 34 37 37 35 35 35 35 36 36 35 37 37 36 36 36 36 38 38 36 39 39 37 37 37 37 38 38 37 39 39 38 38 38 38 1 1 38 0 0 39 39 39 39 1 1 39 38 38 40 36 36 40 2 2 40 1 1 41 38 38 41 2 2 41 6 6 42 4 4 42 8 8 42 10 10 43 8 8 43 12 12 43 8 8 44 4 4 44 12 12 44 4 4 45 2 2 45 28 28 45 34 34 46 32 32 46 28 28 46 36 36 47 34 34 47 28 28 47 2 2 48 36 36 48 28 28 48 28 28 49 32 32 49 30 30 49 12 12 50 4 4 50 26 26 50 4 4 51 28 28 51 26 26 51 14 14 52 12 12 52 16 16 52 16 16 53 12 12 53 18 18 53 12 12 54 26 26 54 18 18 54 20 20 55 18 18 55 23 23 55 26 26 56 24 24 56 23 23 56 18 18 57 26 26 57 23 23 57 3 3 58 37 37 58 39 39 58 3 3 59 39 39 59 0 0 59 9 9 60 5 5 60 7 7 60 13 13 61 9 9 61 11 11 61 13 13 62 5 5 62 9 9 62 29 29 63 3 3 63 5 5 63 29 29 64 33 33 64 35 35 64 29 29 65 35 35 65 37 37 65 29 29 66 37 37 66 3 3 66 31 31 67 33 33 67 29 29 67 27 27 68 5 5 68 13 13 68 27 27 69 29 29 69 5 5 69 17 17 70 13 13 70 15 15 70 19 19 71 13 13 71 17 17 71 19 19 72 27 27 72 13 13 72 22 22 73 19 19 73 21 21 73 22 22 74 25 25 74 27 27 74 22 22 75 27 27 75 19 19 75</p>
                </triangles>
            </mesh>
        </geometry>
    </library_geometries>
    <library_visual_scenes>
        <visual_scene id="VisualSceneNode" name="VisualScene">
            <node id="node" name="node">
                <instance_geometry url="#shape0-lib">
                    <bind_material>
                        <technique_common/>
                    </bind_material>
                </instance_geometry>
            </node>
        </visual_scene>
    </library_visual_scenes>
    <scene>
        <instance_visual_scene url="#VisualSceneNode"/>
    </scene>
</COLLADA>
