<?xml version="1.0" encoding="utf-8"?>
<COLLADA xmlns="http://www.collada.org/2005/11/COLLADASchema" version="1.4.1">
  <asset>
    <contributor>
      <author>Blender User</author>
      <authoring_tool>Blender 2.78.0</authoring_tool>
    </contributor>
    <created>2017-09-01T10:07:49</created>
    <modified>2017-09-01T10:07:49</modified>
    <unit name="meter" meter="1"/>
    <up_axis>Z_UP</up_axis>
  </asset>
  <library_images>
    <image id="PBRFULL_Library-material_Base_Color_jpg" name="PBRFULL_Library-material_Base_Color_jpg">
      <init_from>PBRFULL_Library-material_Base_Color.jpg</init_from>
    </image>
  </library_images>
  <library_effects>
    <effect id="PBRFULL_Library-effect">
      <profile_COMMON>
        <newparam sid="PBRFULL_Library-material_Base_Color_jpg-surface">
          <surface type="2D">
            <init_from>PBRFULL_Library-material_Base_Color_jpg</init_from>
          </surface>
        </newparam>
        <newparam sid="PBRFULL_Library-material_Base_Color_jpg-sampler">
          <sampler2D>
            <source>PBRFULL_Library-material_Base_Color_jpg-surface</source>
          </sampler2D>
        </newparam>
        <technique sid="common">
          <phong>
            <emission>
              <color sid="emission">0 0 0 1</color>
            </emission>
            <ambient>
              <color sid="ambient">0 0 0 1</color>
            </ambient>
            <diffuse>
              <texture texture="PBRFULL_Library-material_Base_Color_jpg-sampler"/>
            </diffuse>
            <specular>
              <color sid="specular">0.25 0.25 0.25 1</color>
            </specular>
            <shininess>
              <float sid="shininess">50</float>
            </shininess>
            <index_of_refraction>
              <float sid="index_of_refraction">1</float>
            </index_of_refraction>
          </phong>
        </technique>
      </profile_COMMON>
    </effect>
  </library_effects>
  <library_materials>
    <material id="PBRFULL_Library-material" name="PBRFULL_Library">
      <instance_effect url="#PBRFULL_Library-effect"/>
    </material>
  </library_materials>
  <library_geometries>
    <geometry id="Cube_009-mesh" name="Cube.009">
      <mesh>
        <source id="Cube_009-mesh-positions">
          <float_array id="Cube_009-mesh-positions-array" count="168">-0.3565144 -1.400946 0 -0.3565144 -1.400946 2.936083 -0.3565144 2.001584 0 -0.3565144 2.001584 2.936083 0.09883522 -1.349184 0.06221884 0.09883522 -1.349184 2.873866 0.09883505 1.949822 0.06221884 0.09883505 1.949822 2.873866 0.09883505 2.001584 2.936083 0.09883522 2.001584 0 0.09883522 -1.400946 2.936083 0.09883522 -1.400946 0 -0.3425755 1.949822 2.873866 -0.3425755 1.949822 0.06221872 -0.3425755 -1.349184 2.873866 -0.3425755 -1.349184 0.06221872 -0.3224808 -1.375065 1.454689 -0.3224808 1.975704 1.454689 0.01043134 -1.375065 1.497374 0.01043117 1.975704 1.497374 0.01043134 1.975704 1.454689 0.01043134 -1.375065 1.454689 -0.3203526 1.975704 1.497374 -0.3203526 -1.375065 1.497374 -0.3224808 -1.375065 2.145022 -0.3224808 1.975704 2.145022 0.01043134 -1.375065 2.187707 0.01043117 1.975704 2.187707 0.01043134 1.975704 2.145022 0.01043134 -1.375065 2.145022 -0.3203526 1.975704 2.187707 -0.3203526 -1.375065 2.187707 -0.3224808 -1.375065 0.715478 -0.3224808 1.975704 0.715478 0.01043134 -1.375065 0.7581629 0.01043117 1.975704 0.7581629 0.01043134 1.975704 0.715478 0.01043134 -1.375065 0.715478 -0.3203526 1.975704 0.7581629 -0.3203526 -1.375065 0.7581629 -0.3224808 -1.375065 1.006191 -0.3224808 1.975704 1.006191 0.01043134 -1.375065 1.048876 0.01043117 1.975704 1.048876 0.01043134 1.975704 1.006191 0.01043134 -1.375065 1.006191 -0.3203526 1.975704 1.048876 -0.3203526 -1.375065 1.048876 -0.3224808 -1.375065 2.575331 -0.3224808 1.975704 2.575331 0.01043134 -1.375065 2.618016 0.01043117 1.975704 2.618016 0.01043134 1.975704 2.575331 0.01043134 -1.375065 2.575331 -0.3203526 1.975704 2.618016 -0.3203526 -1.375065 2.618016</float_array>
          <technique_common>
            <accessor source="#Cube_009-mesh-positions-array" count="56" stride="3">
              <param name="X" type="float"/>
              <param name="Y" type="float"/>
              <param name="Z" type="float"/>
            </accessor>
          </technique_common>
        </source>
        <source id="Cube_009-mesh-normals">
          <float_array id="Cube_009-mesh-normals-array" count="54">-1 0 0 0 1 0 0 -1 0 0 0 -1 0 0 1 1 0 0 1 0 0 1 3.32761e-7 0 1 0 3.1623e-6 -2.45587e-7 0 1 1 0 4.4728e-6 1 0 4.4728e-6 1 0 4.47279e-6 1 0 4.47277e-6 0 1 0 1 -3.52977e-6 0 1 0 0 -2.04656e-7 0 1</float_array>
          <technique_common>
            <accessor source="#Cube_009-mesh-normals-array" count="18" stride="3">
              <param name="X" type="float"/>
              <param name="Y" type="float"/>
              <param name="Z" type="float"/>
            </accessor>
          </technique_common>
        </source>
        <source id="Cube_009-mesh-map-0">
          <float_array id="Cube_009-mesh-map-0-array" count="348">0.3714021 0 0.7428041 0.5038323 0.3714021 0.5038323 0.582534 0.5038324 0.5249342 0.9385952 0.5249342 0.5038324 0.6383705 0.9201691 0.582534 0.5038324 0.6383706 0.5038324 0.5249342 0.5038324 0.4673344 0.9385952 0.4673343 0.5038324 0.7428041 0 0.8004038 0.5038322 0.7428041 0.5038322 0.8004039 0 0.8580037 0.5038322 0.8004039 0.5038322 0.3635317 0.4961676 0 0.5038323 0.007870495 0.4961677 0.007870435 0.00766474 0 0.5038323 0 0 0.007870435 0.00766474 0.371402 0 0.3635316 0.00766468 0.3635316 0.00766468 0.3714021 0.5038323 0.3635317 0.4961676 0 0.5038324 0.3556612 0.9923353 0 0.9923353 0.6383705 0.5038324 0.6942071 0.9201691 0.6383706 0.9201691 0.3556612 0.5038324 0.4114978 0.9923352 0.3556612 0.9923352 0.4673343 0.9923352 0.4114978 0.5038324 0.4673344 0.5038324 0.6942071 0.5038324 0.7363191 1 0.6942071 1 0.9946005 0 1 0.4961676 0.9946005 0.4961676 0.9001157 0 0.9419585 0.4961676 0.9001157 0.4961676 0.7363191 0.5038324 0.778431 1 0.7363191 1 0.989201 0 0.9946005 0.4961676 0.9892011 0.4961676 0.9044978 0.5038324 0.9463405 1 0.9044978 1 0.7784311 0.5038324 0.820543 1 0.7784311 0.9999999 0.993583 0.5038324 0.9989824 1 0.993583 1 0.9419585 0 0.9838013 0.4961676 0.9419586 0.4961676 0.8580037 0 0.9001157 0.4961676 0.8580037 0.4961675 0.9838013 0 0.989201 0.4961676 0.9838015 0.4961676 0.9463406 0.5038324 0.9881833 1 0.9463406 1 0.8205431 0.5038324 0.862655 0.9999999 0.8205431 0.9999999 0.9881834 0.5038324 0.993583 1 0.9881835 1 0.8626551 0.5038324 0.9044978 1 0.8626551 1 0.3714021 0 0.7428041 0 0.7428041 0.5038323 0.582534 0.5038324 0.582534 0.9385952 0.5249342 0.9385952 0.6383705 0.9201691 0.582534 0.9201691 0.582534 0.5038324 0.5249342 0.5038324 0.5249342 0.9385952 0.4673344 0.9385952 0.7428041 0 0.8004039 0 0.8004038 0.5038322 0.8004039 0 0.8580037 0 0.8580037 0.5038322 0.3635317 0.4961676 0.3714021 0.5038323 0 0.5038323 0.007870435 0.00766474 0.007870495 0.4961677 0 0.5038323 0.007870435 0.00766474 0 0 0.371402 0 0.3635316 0.00766468 0.371402 0 0.3714021 0.5038323 0 0.5038324 0.3556612 0.5038324 0.3556612 0.9923353 0.6383705 0.5038324 0.6942071 0.5038324 0.6942071 0.9201691 0.3556612 0.5038324 0.4114978 0.5038324 0.4114978 0.9923352 0.4673343 0.9923352 0.4114978 0.9923352 0.4114978 0.5038324 0.6942071 0.5038324 0.7363191 0.5038324 0.7363191 1 0.9946005 0 1 0 1 0.4961676 0.9001157 0 0.9419584 0 0.9419585 0.4961676 0.7363191 0.5038324 0.7784311 0.5038324 0.778431 1 0.989201 0 0.9946004 0 0.9946005 0.4961676 0.9044978 0.5038324 0.9463405 0.5038324 0.9463405 1 0.7784311 0.5038324 0.8205431 0.5038324 0.820543 1 0.993583 0.5038324 0.9989824 0.5038324 0.9989824 1 0.9419585 0 0.9838013 0 0.9838013 0.4961676 0.8580037 0 0.9001157 0 0.9001157 0.4961676 0.9838013 0 0.9892008 0 0.989201 0.4961676 0.9463406 0.5038324 0.9881833 0.5038324 0.9881833 1 0.8205431 0.5038324 0.8626551 0.5038324 0.862655 0.9999999 0.9881834 0.5038324 0.9935829 0.5038324 0.993583 1 0.8626551 0.5038324 0.9044978 0.5038324 0.9044978 1</float_array>
          <technique_common>
            <accessor source="#Cube_009-mesh-map-0-array" count="174" stride="2">
              <param name="S" type="float"/>
              <param name="T" type="float"/>
            </accessor>
          </technique_common>
        </source>
        <vertices id="Cube_009-mesh-vertices">
          <input semantic="POSITION" source="#Cube_009-mesh-positions"/>
        </vertices>
        <polylist material="PBRFULL_Library-material" count="58">
          <input semantic="VERTEX" source="#Cube_009-mesh-vertices" offset="0"/>
          <input semantic="NORMAL" source="#Cube_009-mesh-normals" offset="1"/>
          <input semantic="TEXCOORD" source="#Cube_009-mesh-map-0" offset="2" set="0"/>
          <vcount>3 3 3 3 3 3 3 3 3 3 3 3 3 3 3 3 3 3 3 3 3 3 3 3 3 3 3 3 3 3 3 3 3 3 3 3 3 3 3 3 3 3 3 3 3 3 3 3 3 3 3 3 3 3 3 3 3 3 </vcount>
          <p>3 0 0 0 0 1 1 0 2 8 1 3 2 1 4 3 1 5 4 1 6 14 1 7 5 1 8 1 2 9 11 2 10 10 2 11 2 3 12 11 3 13 0 3 14 8 4 15 1 4 16 10 4 17 6 5 18 8 5 19 7 5 20 5 6 21 8 6 22 10 6 23 5 7 24 11 7 25 4 7 26 4 8 27 9 8 28 6 8 29 14 5 30 13 5 31 12 5 32 7 2 33 13 2 34 6 2 35 6 9 36 15 9 37 4 9 38 5 3 39 12 3 40 7 3 41 17 3 42 21 3 43 16 3 44 18 10 45 20 10 46 19 10 47 19 4 48 23 4 49 18 4 50 25 3 51 29 3 52 24 3 53 26 11 54 28 11 55 27 11 56 27 4 57 31 4 58 26 4 59 33 3 60 37 3 61 32 3 62 34 11 63 36 11 64 35 11 65 35 4 66 39 4 67 34 4 68 41 3 69 45 3 70 40 3 71 42 12 72 44 12 73 43 12 74 43 4 75 47 4 76 42 4 77 49 3 78 53 3 79 48 3 80 50 13 81 52 13 82 51 13 83 51 4 84 55 4 85 50 4 86 3 0 87 2 0 88 0 0 89 8 14 90 9 14 91 2 14 92 4 1 93 15 1 94 14 1 95 1 2 96 0 2 97 11 2 98 2 3 99 9 3 100 11 3 101 8 4 102 3 4 103 1 4 104 6 15 105 9 15 106 8 15 107 5 16 108 7 16 109 8 16 110 5 5 111 10 5 112 11 5 113 4 5 114 11 5 115 9 5 116 14 5 117 15 5 118 13 5 119 7 2 120 12 2 121 13 2 122 6 17 123 13 17 124 15 17 125 5 3 126 14 3 127 12 3 128 17 3 129 20 3 130 21 3 131 18 5 132 21 5 133 20 5 134 19 4 135 22 4 136 23 4 137 25 3 138 28 3 139 29 3 140 26 5 141 29 5 142 28 5 143 27 4 144 30 4 145 31 4 146 33 3 147 36 3 148 37 3 149 34 5 150 37 5 151 36 5 152 35 4 153 38 4 154 39 4 155 41 3 156 44 3 157 45 3 158 42 5 159 45 5 160 44 5 161 43 4 162 46 4 163 47 4 164 49 3 165 52 3 166 53 3 167 50 5 168 53 5 169 52 5 170 51 4 171 54 4 172 55 4 173</p>
        </polylist>
      </mesh>
    </geometry>
  </library_geometries>
  <library_controllers/>
  <library_visual_scenes>
    <visual_scene id="Scene" name="Scene">
      <node id="newlibrary" name="newlibrary" type="NODE">
        <matrix sid="transform">1 0 0 0 0 1 0 0 0 0 1 0 0 0 0 1</matrix>
        <instance_geometry url="#Cube_009-mesh" name="newlibrary">
          <bind_material>
            <technique_common>
              <instance_material symbol="PBRFULL_Library-material" target="#PBRFULL_Library-material"/>
            </technique_common>
          </bind_material>
        </instance_geometry>
      </node>
    </visual_scene>
  </library_visual_scenes>
  <scene>
    <instance_visual_scene url="#Scene"/>
  </scene>
</COLLADA>