<?xml version="1.0" encoding="utf-8"?>
<COLLADA xmlns="http://www.collada.org/2005/11/COLLADASchema" version="1.4.1">
  <asset>
    <contributor>
      <author>Blender User</author>
      <authoring_tool>Blender 2.76.0 commit date:2015-11-03, commit time:10:56, hash:f337fea</authoring_tool>
    </contributor>
    <created>2017-01-25T08:36:06</created>
    <modified>2017-01-25T08:36:06</modified>
    <unit name="meter" meter="1"/>
    <up_axis>Z_UP</up_axis>
  </asset>
  <library_images/>
  <library_geometries>
    <geometry id="Cube_009-mesh" name="Cube.009">
      <mesh>
        <source id="Cube_009-mesh-positions">
          <float_array id="Cube_009-mesh-positions-array" count="294">-5.349813 -3.886055 4.117184 -5.092322 -3.886055 4.504365 -4.45408 0.1576274 3.754516 -4.160721 -5.284243 -4.325452 -2.945979 -20.93373 -0.3710559 -3.136929 -20.43333 1.732165 -4.45408 0.1576274 4.012637 -4.304161 -0.9318621 -0.4546945 -2.392519 -20.46883 -2.550635 7.58941e-5 0.8833377 1.941048 7.98958e-5 1.626391 4.375368 4.196771 0.7968567 3.754518 7.58941e-5 0.8833377 1.682928 -4.196589 0.7968828 3.754516 -4.196589 0.7968828 4.012637 4.196771 0.7968567 4.012639 4.196771 0.7968567 3.496397 -2.355062 0.8833413 1.682927 5.350002 -3.886093 4.117207 5.092511 -3.886093 4.504387 3.335047 -20.51443 -0.7184126 4.176186 -5.284252 -4.325471 4.454262 0.1576013 3.754518 4.454262 0.1576012 4.012639 2.652437 -20.45933 2.350955 2.327638 -20.91383 -1.913875 4.306582 -0.9318801 -0.4547038 -1.711748 -22.01678 -0.2530038 -1.14193 -21.95918 1.677685 -1.399421 -21.95918 1.419564 -1.358028 -21.86508 -1.727366 1.812607 -22.05018 -0.4338281 1.646298 -21.78608 1.869555 -1.399421 -21.95918 1.677685 -1.615519 -21.86508 -1.727366 1.507128 -21.81438 -1.906645 0.001197516 -5.127962 -5.556793 -3.774485 -5.284244 -4.712634 0.002255797 -1.81606 -4.73844 3.789949 -5.284252 -4.712652 0.1987231 -20.99473 -2.854666 -2.135028 -20.46883 -2.808756 -1.985701 -1.970671 -4.54459 2.001165 -1.97067 -4.544589 1.540619 -20.43713 -3.207235 4.320038 -3.886093 5.149688 4.706275 -3.886093 4.891568 7.98958e-5 0.9871358 4.633488 -4.706086 -3.886055 4.891546 -0.009457111 -20.28923 3.667084 1.422649 -20.42143 3.285095 2.417593 0.9871336 4.633489 -2.417393 0.9871094 4.633518 -2.063399 -20.52323 2.798355 -1.615519 -21.22583 -1.598305 -2.106329 -21.24203 0.719552 -2.106329 -21.24203 0.8486122 -2.32089 -20.52323 2.798355 -4.711571 -0.481628 4.528878 -4.454081 0.1576274 4.270757 -4.196589 0.1576274 3.883577 -4.196589 0.1576274 3.754516 -4.196589 0.1576274 3.625456 -4.024101 -1.590471 -2.649182 -4.160721 -5.284243 -4.712633 -3.100989 -20.41223 -2.103076 -4.067844 0.1576274 4.012637 -3.939099 0.1576274 4.012637 4.068026 0.1576012 4.012639 4.196771 0.1576012 3.883579 4.196771 0.1576012 3.754518 4.196771 0.1576012 3.625458 0.1310012 -1.81606 -4.480319 0.002255797 -1.81606 -4.480319 -2.226317 0.2440859 1.682928 4.454261 0.1576013 4.270759 4.711752 -0.4816541 4.528879 2.601547 -20.01943 3.136846 1.646298 -21.14683 1.740495 2.202857 -21.19983 -0.58251 2.202857 -21.19983 -0.7115703 2.629168 -20.39123 -2.673845 4.176186 -5.284252 -4.712652 3.737595 -2.2317 -4.255949 1.841741 -21.25643 1.18124 -1.14193 -21.31993 1.677685 -0.4180552 -21.25753 2.192545 -1.486773 -21.22583 -1.727366 -0.6870008 -21.24153 -2.103615 0.799963 -21.22133 -2.131425 -2.135028 -20.46883 -2.550636 -2.879439 -20.43333 1.732165 -2.122591 -1.090632 -2.509731 -4.196589 0.1576274 4.012637 2.371677 -20.39123 -2.415725 2.394946 -20.45933 2.350955 3.782083 -1.590489 -2.39107 4.196771 0.1576012 4.012639</float_array>
          <technique_common>
            <accessor source="#Cube_009-mesh-positions-array" count="98" stride="3">
              <param name="X" type="float"/>
              <param name="Y" type="float"/>
              <param name="Z" type="float"/>
            </accessor>
          </technique_common>
        </source>
        <source id="Cube_009-mesh-normals">
          <float_array id="Cube_009-mesh-normals-array" count="573">-0.9904698 -0.1237387 -0.06048393 -0.7871589 -0.1912508 0.5863481 -0.3446781 -0.938721 -1.13922e-5 0 -0.7376686 0.675163 -0.8166975 0.1949529 0.5431377 0 1 0 -0.9275795 0.3736261 -1.7665e-6 0 1 0 -0.9741492 0.2078513 -0.08849531 -0.9815911 0.1078426 -0.1576359 0 1 -2.24202e-7 -0.1663611 0.9537705 -0.2502916 -0.9516496 -0.1426174 -0.2720722 -0.456372 -0.8394822 -0.294948 -0.9975555 -0.06987965 0 -2.56563e-7 0.9921001 -0.125449 -0.1939074 0.9810199 0 2.90606e-6 1.49185e-6 1 -1 0 0 -2.31482e-7 1 4.48398e-7 0.1939119 0.981019 -1.75449e-7 1 1.44492e-6 -1.84734e-6 -9.4921e-7 -0.2397575 0.9708328 -2.31482e-7 1 4.48402e-7 0.02060264 0.9997878 0 0.1874165 0.9012208 -0.3907381 1 1.44492e-6 0 0.9978016 -0.01311361 -0.06496274 1.5185e-6 1 -7.84388e-7 -0.7435519 0.1323316 -0.6554533 -0.2543456 0.8858377 -0.3880719 -0.3290761 0.8974246 -0.2938333 0.976333 0.216273 0 0.92758 0.3736246 1.67534e-6 -1.73612e-7 1 -2.242e-7 -1.73612e-7 1 4.484e-7 0.8173506 -0.1909671 0.5435712 0.5055468 -0.8532896 0.1277481 -0.2795215 -0.03816413 0.9593808 0 -0.8725992 0.4884371 0.7810701 -0.1844304 -0.5965861 0.9413062 -0.06007868 0.3321643 0.5178726 -0.8554579 -7.81702e-6 -0.9939666 -0.01983171 -0.1078755 0.9820963 0.1079043 -0.1544139 0.1266678 0.9592126 -0.2527186 0.9898351 0.14222 -9.98383e-7 0.01419538 0.9454625 -0.3254214 0.05347329 -0.9916253 0.1175581 0.08710396 0.7774034 0.6229421 0.8999989 -0.3738399 0.2241559 -0.4803385 0.813713 -0.3273318 0 -1 0 -0.7121777 -0.7019993 0 0.5769562 -0.2323973 -0.7830153 -0.2701388 -0.29475 0.9165957 -0.4776816 0.8765488 0.05901336 0 0 -1 -0.9775144 0.04173058 -0.2066986 -0.4165396 -0.808602 -0.4155211 0.007481455 -0.9871541 -0.1595959 0.8461582 -0.4702363 -0.2507876 -0.01240438 -0.3672906 -0.9300236 0.01112091 -0.3427742 -0.939352 -0.05728465 -0.1683012 -0.9840697 -0.5882301 -0.1628295 -0.7921313 -0.2332046 -0.8567668 -0.4599633 -0.7595551 -0.6504431 0 -0.2217082 0.1683946 -0.9604628 -0.06219536 0.9396044 -0.3365643 -0.5770534 0.4144648 -0.7037248 -0.2054364 0.8931528 -0.4000924 0.1119896 0.2383374 -0.9647039 0.1838445 0.1485278 -0.971669 0 1 0 0.07227206 0.9702526 -0.2310555 0.210677 -0.1275618 -0.9691972 0.2338965 -0.8552632 -0.4624039 0 -0.1337453 -0.9910158 0.02829855 -0.9992007 0.0282374 0.2417971 -0.1504633 0.9585902 0.1666166 -0.1280714 0.977669 0.08313059 -0.9204643 0.3818835 0.3564308 -0.8419101 0.4051475 0.5314695 0.2917177 0.7952616 9.5182e-7 0.5991981 -0.8006008 0.3355422 0.4657796 0.8188168 -2.31483e-7 1 0 1.13175e-5 0.0528692 0.9986015 -0.3355405 0.4657794 0.8188176 0 0.5992431 -0.8005671 -2.31482e-7 1 -6.72602e-7 -0.3668445 -0.173265 0.9140046 0.2309339 0.8725759 -0.4304427 -0.8522858 -0.05676645 -0.5199871 0 -0.9964632 -0.08403128 -0.8178637 -0.1877699 0.5439133 0.3236696 -0.04300487 0.9451923 -0.5267482 -0.8364674 0.1511909 0 -0.996464 -0.08402115 -0.9763333 0.2162715 0 0 1 0 -0.9363332 0.1071272 -0.334371 0 1 2.242e-7 -0.9820337 0.1062996 -0.1559177 -0.9993167 0.03696185 0 -0.126701 0.9591908 -0.2527846 -0.2209627 0.9259981 -0.3061094 -0.9868158 -0.107231 -0.1212282 -0.2698387 -0.9607861 -0.0638532 0.536326 0.1593302 0.8288356 -1.52223e-6 -0.782819 -0.6222496 -0.1443309 0.9464214 -0.2888863 -0.07976263 -0.03212803 0.996296 -1 2.16738e-6 0 -0.7008818 -0.141157 0.6991705 0.144336 0.9464206 -0.2888863 1 1.44492e-6 0 0.08282577 -0.01668107 0.9964244 0.7008799 -0.1411564 0.6991726 0.02060264 0.9997878 0 0 0.9159948 -0.4011902 1 0 0 0.1615312 0.9105258 -0.3805924 -0.004163622 0.999269 0.03800356 0 -3.32186e-7 -1 -0.6921127 -0.1393918 -0.708202 0.8166973 0.1949561 0.543137 0.9363337 0.107127 -0.3343698 0 1 0 -1.73612e-7 1 -2.242e-7 0.959648 -0.179286 0.2166389 0.5250783 -0.8386217 0.1449357 0.9743412 -0.1635446 0.1546365 0 -0.663966 0.7477628 0.988783 -0.08387798 -0.1235833 0.9947975 -0.1018717 -1.29758e-6 0.5114942 -0.8464007 -0.1482557 -0.6020979 -0.5260438 -0.6006299 0.9741835 0.2079043 -0.08799123 -1.73611e-7 1 0 0.970313 0.1438429 -0.1944273 -0.2304288 0.9385867 -0.2568224 -0.007823288 -0.9994533 0.03212594 -0.06865251 1.87662e-7 0.9976407 0.9974186 0.0142107 0.07038676 -0.9459184 -0.06419909 -0.3179889 -0.04239654 -0.9982051 0.04229873 -0.712177 -0.702 0 0 1.86482e-7 1 -0.717605 -0.6963858 0.009487807 0 -0.9947483 -0.1023522 -0.4255045 -0.08569622 -0.9008896 -0.726027 -0.6870413 0.029311 -0.700882 0.1411565 -0.6991705 -0.01485419 -0.9942697 -0.1058639 0.908861 -0.4170992 0 -0.04637306 -0.4790173 -0.8765797 0.8093436 -0.5576338 -0.1844114 -0.2102406 -0.1439434 -0.966995 -1.28673e-6 -0.1699882 -0.9854461 -0.1986922 -0.8372504 -0.5094441 -0.05849277 -0.9982879 0 -0.1126021 0.2383884 -0.96462 -0.07753968 0.9969893 -9.26469e-7 -2.97682e-6 0.0506491 -0.9987165 0.933444 0.3478518 -0.0876441 0.2209761 0.1680163 -0.9606977 0 0.1479665 -0.9889925 0.08094537 0.9959005 -0.04037445 0.192987 0.92646 -0.3231532 -0.1849542 -0.1672247 -0.9684152 0.007244765 -0.9524995 -0.3044542 0.4400218 -0.1532233 -0.8848183 0.3854684 -0.8515508 -0.3553527 0.5457606 -0.1877183 0.816644 0.8567243 -0.05600094 -0.5127255 0.0356701 -0.8954921 0.4436459 0.3407638 -0.8557145 0.3894006 0 0.1053363 0.9944368 2.12658e-6 0.5992026 -0.8005974 0.112334 0.1050854 0.9880983 0.2783357 0.8654877 -0.4164856 -0.02849519 0.08028054 0.996365 -0.1123401 0.1050795 0.9880983 -1.63719e-5 0.5992589 -0.8005554 -0.2783181 0.8655061 -0.4164592 -0.02849054 -0.08252042 0.996182 -0.1181457 -0.8526224 0.5089959 0 -0.1248299 0.9921783 -0.3429658 -0.9209818 0.1848429</float_array>
          <technique_common>
            <accessor source="#Cube_009-mesh-normals-array" count="191" stride="3">
              <param name="X" type="float"/>
              <param name="Y" type="float"/>
              <param name="Z" type="float"/>
            </accessor>
          </technique_common>
        </source>
        <vertices id="Cube_009-mesh-vertices">
          <input semantic="POSITION" source="#Cube_009-mesh-positions"/>
        </vertices>
        <polylist count="192">
          <input semantic="VERTEX" source="#Cube_009-mesh-vertices" offset="0"/>
          <input semantic="NORMAL" source="#Cube_009-mesh-normals" offset="1"/>
          <vcount>3 3 3 3 3 3 3 3 3 3 3 3 3 3 3 3 3 3 3 3 3 3 3 3 3 3 3 3 3 3 3 3 3 3 3 3 3 3 3 3 3 3 3 3 3 3 3 3 3 3 3 3 3 3 3 3 3 3 3 3 3 3 3 3 3 3 3 3 3 3 3 3 3 3 3 3 3 3 3 3 3 3 3 3 3 3 3 3 3 3 3 3 3 3 3 3 3 3 3 3 3 3 3 3 3 3 3 3 3 3 3 3 3 3 3 3 3 3 3 3 3 3 3 3 3 3 3 3 3 3 3 3 3 3 3 3 3 3 3 3 3 3 3 3 3 3 3 3 3 3 3 3 3 3 3 3 3 3 3 3 3 3 3 3 3 3 3 3 3 3 3 3 3 3 3 3 3 3 3 3 3 3 3 3 3 3 3 3 3 3 3 3 </vcount>
          <p>0 0 4 0 5 0 1 1 5 1 57 1 4 2 55 2 56 2 5 3 56 3 91 3 0 4 1 4 6 4 2 5 6 5 60 5 58 6 59 6 6 6 6 7 59 7 93 7 0 8 2 8 7 8 3 9 7 9 63 9 2 10 61 10 62 10 7 11 62 11 92 11 3 12 8 12 4 12 4 13 8 13 54 13 3 14 64 14 65 14 8 15 65 15 90 15 13 16 14 16 10 16 14 17 66 17 67 17 13 18 61 18 60 18 60 19 93 19 66 19 10 20 15 20 11 20 11 21 15 21 69 21 10 22 67 22 68 22 68 23 97 23 69 23 9 24 11 24 16 24 12 25 16 25 72 25 11 26 70 26 71 26 16 27 71 27 96 27 9 28 12 28 17 28 13 29 17 29 62 29 12 30 73 30 74 30 74 31 92 31 62 31 18 32 22 32 23 32 23 33 75 33 76 33 22 34 70 34 69 34 23 35 69 35 97 35 18 36 19 36 24 36 20 37 24 37 78 37 19 38 76 38 77 38 24 39 77 39 95 39 20 40 25 40 21 40 21 41 25 41 81 41 20 42 79 42 80 42 25 43 80 43 94 43 18 44 21 44 26 44 22 45 26 45 71 45 21 46 82 46 83 46 26 47 83 47 96 47 31 48 32 48 28 48 32 49 84 49 85 49 31 50 79 50 78 50 78 51 95 51 84 51 28 52 33 52 29 52 29 53 33 53 56 53 85 54 86 54 33 54 33 55 86 55 91 55 27 56 29 56 34 56 30 57 34 57 87 57 55 58 54 58 34 58 54 59 90 59 87 59 30 60 35 60 31 60 31 61 35 61 80 61 88 62 89 62 35 62 35 63 89 63 94 63 36 64 40 64 41 64 37 65 41 65 65 65 88 66 87 66 41 66 41 67 87 67 90 67 36 68 37 68 42 68 42 69 74 69 73 69 64 70 63 70 42 70 42 71 63 71 92 71 36 72 38 72 43 72 39 73 43 73 83 73 38 74 73 74 72 74 43 75 72 75 96 75 36 76 39 76 44 76 40 77 44 77 89 77 39 78 82 78 81 78 44 79 81 79 94 79 45 80 49 80 50 80 46 81 50 81 77 81 85 82 84 82 50 82 50 83 84 83 95 83 45 84 46 84 51 84 47 85 51 85 68 85 76 86 75 86 51 86 75 87 97 87 68 87 47 88 52 88 48 88 52 89 59 89 58 89 67 90 66 90 52 90 66 91 93 91 59 91 48 92 53 92 49 92 53 93 86 93 85 93 48 94 58 94 57 94 53 95 57 95 91 95 1 96 0 96 5 96 58 97 1 97 57 97 5 98 4 98 56 98 57 99 5 99 91 99 2 100 0 100 6 100 61 101 2 101 60 101 1 102 58 102 6 102 60 103 6 103 93 103 3 104 0 104 7 104 64 105 3 105 63 105 7 106 2 106 62 106 63 107 7 107 92 107 0 108 3 108 4 108 55 109 4 109 54 109 8 110 3 110 65 110 54 111 8 111 90 111 9 112 13 112 10 112 10 113 14 113 67 113 14 114 13 114 60 114 14 115 60 115 66 115 9 116 10 116 11 116 70 117 11 117 69 117 15 118 10 118 68 118 15 119 68 119 69 119 12 120 9 120 16 120 73 121 12 121 72 121 16 122 11 122 71 122 72 123 16 123 96 123 13 124 9 124 17 124 61 18 13 18 62 18 17 125 12 125 74 125 17 126 74 126 62 126 19 127 18 127 23 127 19 128 23 128 76 128 23 129 22 129 69 129 75 130 23 130 97 130 20 131 18 131 24 131 79 132 20 132 78 132 24 133 19 133 77 133 78 134 24 134 95 134 18 135 20 135 21 135 82 136 21 136 81 136 25 137 20 137 80 137 81 138 25 138 94 138 22 139 18 139 26 139 70 140 22 140 71 140 26 141 21 141 83 141 71 142 26 142 96 142 27 143 31 143 28 143 28 144 32 144 85 144 32 145 31 145 78 145 32 146 78 146 84 146 27 147 28 147 29 147 55 148 29 148 56 148 28 149 85 149 33 149 56 150 33 150 91 150 30 151 27 151 34 151 88 152 30 152 87 152 29 153 55 153 34 153 34 154 54 154 87 154 27 155 30 155 31 155 79 156 31 156 80 156 30 157 88 157 35 157 80 158 35 158 94 158 37 159 36 159 41 159 64 160 37 160 65 160 40 161 88 161 41 161 65 162 41 162 90 162 38 163 36 163 42 163 38 164 42 164 73 164 37 165 64 165 42 165 74 166 42 166 92 166 39 167 36 167 43 167 82 168 39 168 83 168 43 169 38 169 72 169 83 170 43 170 96 170 40 171 36 171 44 171 88 172 40 172 89 172 44 173 39 173 81 173 89 174 44 174 94 174 46 175 45 175 50 175 76 176 46 176 77 176 49 177 85 177 50 177 77 178 50 178 95 178 47 179 45 179 51 179 67 180 47 180 68 180 46 181 76 181 51 181 51 182 75 182 68 182 45 183 47 183 48 183 48 184 52 184 58 184 47 185 67 185 52 185 52 186 66 186 59 186 45 187 48 187 49 187 49 188 53 188 85 188 53 189 48 189 57 189 86 190 53 190 91 190</p>
        </polylist>
      </mesh>
    </geometry>
  </library_geometries>
  <library_controllers/>
  <library_visual_scenes>
    <visual_scene id="Scene" name="Scene">
      <node id="COL_VIZ_LeftFingerJoint12y_link_0" name="COL_VIZ_LeftFingerJoint12y_link_0" type="NODE">
        <instance_geometry url="#Cube_009-mesh" name="COL_VIZ_LeftFingerJoint12y_link_0"/>
      </node>
    </visual_scene>
  </library_visual_scenes>
  <scene>
    <instance_visual_scene url="#Scene"/>
  </scene>
</COLLADA>