<?xml version="1.0" encoding="utf-8"?>
<COLLADA xmlns="http://www.collada.org/2005/11/COLLADASchema" version="1.4.1">
  <asset>
    <contributor>
      <author>Blender User</author>
      <authoring_tool>Blender 2.76.0 commit date:2015-11-03, commit time:10:56, hash:f337fea</authoring_tool>
    </contributor>
    <created>2017-01-25T08:36:05</created>
    <modified>2017-01-25T08:36:05</modified>
    <unit name="meter" meter="1"/>
    <up_axis>Z_UP</up_axis>
  </asset>
  <library_images/>
  <library_geometries>
    <geometry id="Cube_007-mesh" name="Cube.007">
      <mesh>
        <source id="Cube_007-mesh-positions">
          <float_array id="Cube_007-mesh-positions-array" count="294">-11.19208 2.89679e-5 1.90735e-6 -10.88422 -0.7548668 3.298227 -10.91569 2.905634 -1.158538 -10.88422 0.7549249 -3.298223 -10.94955 -2.905575 1.53337e-6 -7.127104 -7.054119 3.803494 -7.127104 7.054244 3.803496 -7.133305 4.172947 -6.83528 -7.127104 -7.054124 -3.803492 9.53673e-7 11.19209 3.52664e-6 1.24944e-6 9.123894 6.703318 3.604356 10.70109 -0.8387314 8.03357e-7 10.70109 -3.699892 -3.604354 10.70109 -0.8387324 -5.692781 8.527847 3.193616 3.193614 8.527849 5.692786 3.193613 8.527841 -5.69278 -4.616491 8.527842 -4.616489 11.19208 0 1.90735e-6 10.88422 -0.7548668 3.298227 10.94955 -2.905575 1.53337e-6 10.88422 0.7549249 -3.298223 10.94955 2.905635 2.28134e-6 8.762596 4.172955 4.681354 7.127047 -7.054119 3.803494 7.127106 -7.054124 -3.803492 7.133306 4.172947 -6.83528 9.53676e-7 -11.19205 2.88069e-7 -0.8387358 -10.70103 3.604355 -3.699894 -10.70103 3.67582e-7 6.57908e-7 -9.123834 -6.703314 3.604356 -10.70103 -0.8387356 3.193614 -8.527782 5.692783 -4.616491 -8.527783 4.616493 -3.193612 -8.527789 -5.692782 5.692783 -8.527787 -3.193612 4.81132e-7 2.309583 -10.94955 -5.222315 2.309583 -9.811222 1.15854 2.905628 -10.91569 3.298226 0.7549195 -10.88422 4.81133e-7 -2.905582 -10.94955 -0.2980225 -2.607559 -10.3535 -3.803492 7.054237 -7.127043 4.681353 4.172947 -8.762592 4.305603 -5.679518 -8.062475 1.42622e-6 -2.309523 10.94955 5.222317 -2.309523 9.811225 1.42622e-6 2.905642 10.94955 -3.298224 -0.7548615 10.88422 1.42622e-6 -2.905568 10.94955 3.803494 -7.054117 7.127106 6.835284 4.172957 7.133308 -3.803491 7.054247 7.127048 -3.803491 -7.054117 7.127047 -7.127104 -7.352147 -3.803492 -7.127104 -7.352147 -3.505469 -7.127104 -7.352141 3.803494 -7.133304 -4.172887 7.133307 -7.133304 -3.874865 7.133307 -7.133304 4.172957 7.133308 -7.127104 7.352267 3.803496 -7.127104 7.352267 3.505473 -7.127104 7.352262 -3.80349 -7.133305 4.172947 -7.133304 -7.133305 3.874925 -7.133304 -7.133305 -4.172898 -7.133305 -3.803491 7.35227 7.127048 -3.505468 7.35227 7.127048 3.803494 7.35227 7.127109 7.127047 7.352267 3.803496 7.127047 7.352267 3.505473 7.127106 7.352262 -3.80349 3.803493 7.35226 -7.127043 3.50547 7.35226 -7.127043 -3.803492 7.35226 -7.127043 7.133307 4.172957 7.133308 7.133307 3.874935 7.133308 7.133307 -4.172887 7.133307 7.127047 -7.352141 3.803494 7.127047 -7.352141 3.505471 7.127106 -7.352147 -3.803492 7.133306 -4.172898 -7.133305 7.133306 -3.874875 -7.133305 7.133306 4.172947 -7.133304 2.295914 -7.352139 7.762016 1.997891 -7.352139 7.762016 -3.803491 -7.35214 7.127047 -3.803492 -7.352149 -7.127105 -3.505469 -7.352149 -7.127105 3.803493 -7.352149 -7.127105 -6.53726 -3.874875 -6.537259 -6.537259 -3.874865 6.537262 -6.53726 3.874925 -6.537258 -6.537259 3.874935 6.537263 6.537261 -3.874875 -6.537259 6.537261 -3.874865 6.537262 6.537261 3.874925 -6.537258 6.537261 3.874935 6.537263</float_array>
          <technique_common>
            <accessor source="#Cube_007-mesh-positions-array" count="98" stride="3">
              <param name="X" type="float"/>
              <param name="Y" type="float"/>
              <param name="Z" type="float"/>
            </accessor>
          </technique_common>
        </source>
        <source id="Cube_007-mesh-normals">
          <float_array id="Cube_007-mesh-normals-array" count="567">-0.8246702 -0.4661723 0.3203163 -0.9999983 0 -0.00186187 -0.7583203 -0.6518821 5.34052e-7 -0.9775055 0 0.2109103 -0.859335 0.3922075 0.3282025 -1 0 0 -0.7149078 -2.15011e-7 0.6992188 0.7185109 0.5252869 0.4558682 -0.795172 0.4217876 -0.4356569 -0.7611823 0.648538 -3.57373e-7 0.5772323 0.5629454 -0.5915195 -0.8255215 -0.3695805 -0.4265261 -0.7149081 2.15011e-7 -0.6992185 0.7185099 -0.5252924 -0.4558635 -0.2106009 0.9019408 0.3770281 -0.345163 0.8407824 0.4170704 -0.6338977 0.7734169 0 -0.6481798 0.399639 0.6481912 0.2621308 0.9221395 0.2845106 0.2863531 0.9581243 0 -8.02249e-6 0.2326301 0.9725653 0.6481915 0.3996391 0.6481794 0.3248512 0.8526431 -0.4092328 0 0.7734042 -0.6339132 0.6889912 0.7247698 5.07284e-6 0.6481794 0.3996392 -0.6481914 -0.3220955 0.8553434 -0.4057615 -0.4862687 0.8073806 -0.3341845 0 0.7152323 -0.6988868 -0.6481794 0.3996391 -0.6481915 0.8947933 0.2899496 0.3395206 0.8328871 0 0.5534431 0.8892337 0.4574532 0 0.5284146 0.4675099 0.7086697 0.8246662 -0.4661772 0.3203195 1 0 0 0.714908 -2.15011e-7 0.6992186 -0.7185122 -0.525283 0.4558706 0.8255215 -0.3695804 -0.4265261 0.9999983 0 0.00186187 0.7583177 -0.6518852 6.74278e-6 0.9775055 0 -0.2109103 0.789027 0.5073478 -0.3464601 0.8359553 0.3795874 -0.3963484 0.7149078 2.15011e-7 -0.6992187 -0.4472117 0.8944283 0 0.3173047 -0.893664 0.3173052 0 -0.8694674 0.4939903 0.2863668 -0.9581201 0 0.4921686 -0.4848898 0.7229468 -0.4057611 -0.8553433 0.3220962 -0.4816602 -0.8258724 0.2931527 -0.07167768 -0.7523248 0.6548817 -0.6481778 -0.3996449 0.6481895 -0.1225609 -0.9235146 -0.3634553 0 -0.7734017 -0.6339163 -0.2863629 -0.9581212 0 -0.6481853 -0.3996402 -0.6481848 0.2712466 -0.9197283 -0.2837696 0.5474961 -0.7982386 -0.2511237 0 -0.232639 -0.9725632 0.6481854 -0.3996402 -0.6481848 -0.8944278 0 -0.4472126 -0.3612127 -0.2630781 -0.8946035 0 -0.5623188 -0.8269206 -0.4763075 -0.4974508 0.7250337 -0.1925221 0.5261644 -0.8283033 0 0 -1 -0.8139932 0 -0.5808745 -0.4558741 0.5252784 0.7185134 0.3840796 0.3697306 -0.8460391 0.5311088 0.2812088 -0.799278 0 0.4574529 -0.889234 0.70867 0.4675097 -0.5284142 0.3750556 -0.3224251 -0.8691233 0.2141545 -0.5249466 -0.8237529 0.3121746 0 -0.9500249 0.2139152 -0.7712342 0.5995317 0.2378776 -0.5311716 0.8131857 0.4635528 -0.5372403 0.7046217 0 0.9052351 0.4249114 -0.412685 0.1895647 -0.8909301 0.4366521 0.2485278 0.8646207 0.3963481 0.3795877 0.8359555 0 0 1 0 0.8944277 -0.4472126 -0.4265289 0.3695825 0.8255192 -0.3363244 0.3905411 0.8569502 -0.2108895 0 0.9775099 -0.3203191 -0.4661774 0.8246663 -0.1088019 0 0.9940635 0.001879692 0 0.9999983 -0.4558694 -0.525284 -0.7185122 -0.9938188 -0.08295381 0.07377725 -0.7942881 -0.4401539 0.4187732 -0.7053469 0 0.7088624 0.7185094 -0.5252923 0.4558643 -0.9818779 0.1429908 0.1243765 -0.8619889 0.3584534 0.3584499 -0.85695 0.3905339 0.3363333 -0.9775058 0 0.2109092 -0.9949078 0.06339484 -0.07835555 -0.7951293 0.4288175 -0.4288181 -0.7961874 0.4183682 -0.4370971 0.4472126 0.8944277 0 -0.9903363 -0.08266395 -0.1113585 -0.8270056 -0.3975302 -0.3975317 -0.8569501 -0.3905375 -0.3363289 -0.9775056 0 -0.2109097 -0.2712453 0.9197294 0.2837672 0 0.2326154 0.9725688 -0.6175018 0.7801066 0.100625 -0.4461529 0.7758148 0.4461605 0.2007126 0.9256948 0.3206299 0.4262099 0.8499886 0.3096204 0.3127038 0.7955006 0.5190328 0.4461611 0.7758144 0.4461529 0.1038628 0.9859479 -0.1308415 0.1526036 0.7803556 -0.60643 0.4330638 0.8084397 -0.398599 0.4461589 0.7758074 -0.4461674 -0.1038628 0.9859478 -0.1308421 -0.6889887 0.7247722 -5.36901e-7 -0.2931547 0.8258752 -0.481654 -0.4947511 0.7144464 -0.4947603 0.9903365 0.08266228 0.1113576 0.8068268 0.1903985 0.5592665 0.8222588 0.5136413 0.245078 -0.2825756 0.9406883 -0.1877678 0.9938186 -0.08295464 0.07377779 0.8270015 -0.3975358 0.3975346 0.8051854 -0.4491964 0.3871681 0.9775099 0 0.2108895 0.9903362 -0.08266395 -0.1113594 0.8478553 -0.3842852 -0.3653303 0.7053469 0 -0.7088624 -0.7185101 -0.5252919 -0.4558638 0.9938188 0.08295291 -0.07377672 0.7583221 0.6518801 5.60748e-6 0.6735465 0.7391449 0 -0.5772324 0.5629457 -0.5915192 0.1721985 -0.9698944 0.1721994 0.1540921 -0.8181964 0.5539045 0.4262208 -0.8499829 0.3096205 0.6117652 -0.5438745 0.5744075 -0.1308463 -0.9859467 0.1038674 -0.6988868 -0.7152323 3.26762e-7 -0.3341724 -0.8073717 0.4862918 -0.4947643 -0.7144278 0.4947739 -0.2621314 -0.9221386 -0.2845128 -0.3195302 -0.7657382 -0.5581628 -0.4429746 -0.8237442 -0.3538631 -0.4461699 -0.7758001 -0.446169 -0.06942456 -0.7016655 -0.7091162 0.688998 -0.7247633 6.12064e-6 0.3451668 -0.8407777 -0.4170766 0.4461697 -0.7758001 -0.4461691 -0.2117972 -0.1049462 -0.9716627 -0.8139933 1.44081e-7 -0.5808742 -0.829319 0.207956 -0.518637 -0.3324663 -0.3499191 -0.8757984 -0.1927864 0.4249574 -0.884446 -0.02676725 0.6564595 -0.7538864 -0.4635508 0.5372421 -0.7046217 -0.2108895 0 -0.9775099 0.02430045 0.009547233 -0.9996591 0.6992187 1.76721e-7 -0.714908 0.3002867 0.5218169 -0.798458 -0.1877675 0.9406885 0.2825749 0.01980364 0 -0.9998039 0 -0.6518821 -0.7583204 0.4626256 -0.2943105 -0.8362768 0.7259276 -0.4886032 -0.4840415 0.2129734 0 0.9770581 0.8139934 0 0.5808742 0.3618233 -0.4302744 0.8270115 0.4558646 -0.5252912 -0.71851 0.2129731 0 0.9770582 -6.05252e-6 0.6518801 0.7583221 0.299625 0.2996274 0.9057861 0.591519 0.5629468 -0.5772316 -0.01980364 0 0.9998039 -0.6992187 0 0.7149079 -0.3975325 0.3975332 0.8270037 -0.4558743 0.525278 -0.7185136 -0.01980221 0 0.999804 -0.1170187 -0.6128107 0.7815176 -0.4187659 -0.4401616 0.7942876 -0.210889 0 0.9775101</float_array>
          <technique_common>
            <accessor source="#Cube_007-mesh-normals-array" count="189" stride="3">
              <param name="X" type="float"/>
              <param name="Y" type="float"/>
              <param name="Z" type="float"/>
            </accessor>
          </technique_common>
        </source>
        <vertices id="Cube_007-mesh-vertices">
          <input semantic="POSITION" source="#Cube_007-mesh-positions"/>
        </vertices>
        <polylist count="192">
          <input semantic="VERTEX" source="#Cube_007-mesh-vertices" offset="0"/>
          <input semantic="NORMAL" source="#Cube_007-mesh-normals" offset="1"/>
          <vcount>3 3 3 3 3 3 3 3 3 3 3 3 3 3 3 3 3 3 3 3 3 3 3 3 3 3 3 3 3 3 3 3 3 3 3 3 3 3 3 3 3 3 3 3 3 3 3 3 3 3 3 3 3 3 3 3 3 3 3 3 3 3 3 3 3 3 3 3 3 3 3 3 3 3 3 3 3 3 3 3 3 3 3 3 3 3 3 3 3 3 3 3 3 3 3 3 3 3 3 3 3 3 3 3 3 3 3 3 3 3 3 3 3 3 3 3 3 3 3 3 3 3 3 3 3 3 3 3 3 3 3 3 3 3 3 3 3 3 3 3 3 3 3 3 3 3 3 3 3 3 3 3 3 3 3 3 3 3 3 3 3 3 3 3 3 3 3 3 3 3 3 3 3 3 3 3 3 3 3 3 3 3 3 3 3 3 3 3 3 3 3 3 </vcount>
          <p>4 0 5 0 1 0 5 1 57 1 58 1 4 2 55 2 56 2 5 3 56 3 91 3 1 4 6 4 2 4 6 5 60 5 61 5 1 6 58 6 59 6 6 7 59 7 93 7 2 8 7 8 3 8 7 5 63 5 64 5 2 9 61 9 62 9 7 10 62 10 92 10 3 11 8 11 4 11 8 5 54 5 55 5 3 12 64 12 65 12 8 13 65 13 90 13 9 14 13 14 14 14 10 15 14 15 66 15 61 16 60 16 14 16 60 17 93 17 66 17 9 18 10 18 15 18 15 19 69 19 70 19 10 20 67 20 68 20 68 21 97 21 69 21 11 22 16 22 12 22 16 23 72 23 73 23 11 24 70 24 71 24 71 25 96 25 72 25 12 26 17 26 13 26 13 27 17 27 62 27 12 28 73 28 74 28 74 29 92 29 62 29 22 30 23 30 19 30 23 31 75 31 76 31 70 32 69 32 23 32 23 33 69 33 97 33 19 34 24 34 20 34 24 35 78 35 79 35 19 36 76 36 77 36 24 37 77 37 95 37 20 38 25 38 21 38 25 39 81 39 82 39 20 40 79 40 80 40 25 41 80 41 94 41 21 42 26 42 22 42 22 43 26 43 71 43 21 44 82 44 83 44 26 45 83 45 96 45 31 46 32 46 28 46 32 47 84 47 85 47 79 48 78 48 32 48 32 49 78 49 95 49 28 50 33 50 29 50 29 51 33 51 56 51 28 52 85 52 86 52 86 53 91 53 56 53 27 54 29 54 34 54 34 55 87 55 88 55 55 56 54 56 34 56 54 57 90 57 87 57 27 58 30 58 35 58 31 59 35 59 80 59 30 60 88 60 89 60 89 61 94 61 80 61 36 62 40 62 41 62 37 63 41 63 65 63 88 64 87 64 41 64 87 65 90 65 65 65 37 66 42 66 38 66 42 67 74 67 73 67 37 68 64 68 63 68 42 69 63 69 92 69 38 70 43 70 39 70 39 71 43 71 83 71 73 72 72 72 43 72 43 73 72 73 96 73 39 74 44 74 40 74 40 75 44 75 89 75 82 76 81 76 44 76 44 77 81 77 94 77 49 78 50 78 46 78 46 79 50 79 77 79 85 80 84 80 50 80 50 81 84 81 95 81 46 82 51 82 47 82 47 83 51 83 68 83 76 84 75 84 51 84 51 85 75 85 97 85 47 86 52 86 48 86 48 87 52 87 59 87 67 84 66 84 52 84 52 88 66 88 93 88 48 89 53 89 49 89 53 90 86 90 85 90 58 91 57 91 53 91 53 92 57 92 91 92 0 93 4 93 1 93 1 94 5 94 58 94 5 95 4 95 56 95 57 96 5 96 91 96 0 97 1 97 2 97 2 98 6 98 61 98 6 99 1 99 59 99 60 100 6 100 93 100 0 101 2 101 3 101 3 102 7 102 64 102 7 103 2 103 62 103 63 104 7 104 92 104 0 105 3 105 4 105 4 106 8 106 55 106 8 107 3 107 65 107 54 108 8 108 90 108 10 109 9 109 14 109 67 110 10 110 66 110 13 111 61 111 14 111 14 112 60 112 66 112 11 113 9 113 15 113 11 114 15 114 70 114 15 115 10 115 68 115 15 116 68 116 69 116 9 117 11 117 12 117 12 118 16 118 73 118 16 119 11 119 71 119 16 120 71 120 72 120 9 121 12 121 13 121 61 122 13 122 62 122 17 123 12 123 74 123 17 124 74 124 62 124 18 125 22 125 19 125 19 126 23 126 76 126 22 127 70 127 23 127 75 128 23 128 97 128 18 129 19 129 20 129 20 130 24 130 79 130 24 131 19 131 77 131 78 132 24 132 95 132 18 133 20 133 21 133 21 134 25 134 82 134 25 135 20 135 80 135 81 136 25 136 94 136 18 137 21 137 22 137 70 138 22 138 71 138 26 139 21 139 83 139 71 140 26 140 96 140 27 141 31 141 28 141 28 142 32 142 85 142 31 143 79 143 32 143 84 144 32 144 95 144 27 145 28 145 29 145 55 146 29 146 56 146 33 147 28 147 86 147 33 148 86 148 56 148 30 149 27 149 34 149 30 150 34 150 88 150 29 151 55 151 34 151 34 152 54 152 87 152 31 153 27 153 35 153 79 154 31 154 80 154 35 155 30 155 89 155 35 156 89 156 80 156 37 157 36 157 41 157 64 158 37 158 65 158 40 159 88 159 41 159 41 160 87 160 65 160 36 161 37 161 38 161 38 162 42 162 73 162 42 163 37 163 63 163 74 164 42 164 92 164 36 165 38 165 39 165 82 166 39 166 83 166 38 167 73 167 43 167 83 168 43 168 96 168 36 169 39 169 40 169 88 170 40 170 89 170 39 171 82 171 44 171 89 172 44 172 94 172 45 173 49 173 46 173 76 174 46 174 77 174 49 175 85 175 50 175 77 176 50 176 95 176 45 177 46 177 47 177 67 178 47 178 68 178 46 179 76 179 51 179 68 180 51 180 97 180 45 181 47 181 48 181 58 182 48 182 59 182 47 183 67 183 52 183 59 184 52 184 93 184 45 185 48 185 49 185 49 186 53 186 85 186 48 187 58 187 53 187 86 188 53 188 91 188</p>
        </polylist>
      </mesh>
    </geometry>
  </library_geometries>
  <library_controllers/>
  <library_visual_scenes>
    <visual_scene id="Scene" name="Scene">
      <node id="COL_VIZ_LeftEyeSegmentY_link_0" name="COL_VIZ_LeftEyeSegmentY_link_0" type="NODE">
        <instance_geometry url="#Cube_007-mesh" name="COL_VIZ_LeftEyeSegmentY_link_0"/>
      </node>
    </visual_scene>
  </library_visual_scenes>
  <scene>
    <instance_visual_scene url="#Scene"/>
  </scene>
</COLLADA>