<?xml version="1.0" encoding="utf-8"?>
<COLLADA xmlns="http://www.collada.org/2005/11/COLLADASchema" version="1.4.1">
  <asset>
    <contributor>
      <author>Blender User</author>
      <authoring_tool>Blender 2.76.0 commit date:2015-11-03, commit time:10:56, hash:f337fea</authoring_tool>
    </contributor>
    <created>2017-01-25T08:36:07</created>
    <modified>2017-01-25T08:36:07</modified>
    <unit name="meter" meter="1"/>
    <up_axis>Z_UP</up_axis>
  </asset>
  <library_images/>
  <library_geometries>
    <geometry id="Cube_021-mesh" name="Cube.021">
      <mesh>
        <source id="Cube_021-mesh-positions">
          <float_array id="Cube_021-mesh-positions-array" count="294">3.837011 -29.66848 -0.4797726 4.294479 -29.66848 2.398047 4.886969 -26.7614 0.3548843 4.294409 -30.27868 -2.397864 4.88639 -33.18596 -0.3547008 5.087525 -32.50991 1.981063 4.622044 -28.67884 2.231102 4.804985 -28.04624 -2.132749 4.621845 -31.26842 -2.230918 8.281745 -25.01621 0.2935304 8.5353 -25.80481 2.941518 11.70239 -25.80511 0.667066 7.658106 -25.80471 -2.661964 5.886899 -25.80451 0.2931574 6.721705 -26.0455 2.106713 10.93504 -26.0459 2.106713 10.93504 -26.0459 -2.106528 6.721705 -26.0455 -2.106528 13.73516 -29.04098 9.18074e-5 13.36158 -29.66928 2.398047 13.19558 -32.63106 -0.4055157 13.36158 -29.66928 -2.397864 12.76968 -26.762 0.3548843 12.85137 -28.04704 2.132932 12.85107 -31.90172 2.132932 12.18988 -33.06612 -1.777989 12.56848 -27.43804 -1.980879 8.280886 -34.93154 -0.2933488 8.534606 -34.14313 2.941578 5.953619 -34.14294 -0.6668825 8.827636 -34.14324 -2.949913 11.18359 -34.51784 -0.2232108 11.82854 -33.42745 1.778173 6.721014 -33.90215 2.106712 6.721014 -33.90215 -2.106528 10.93434 -33.90245 -2.106528 7.735935 -30.27898 -4.880565 7.254147 -30.27898 -4.880565 8.422649 -27.3172 -4.367726 11.22609 -29.66908 -4.533496 8.422179 -32.63066 -4.367726 6.695024 -31.90122 -4.023065 5.824835 -28.04634 -3.364615 10.80924 -27.43794 -3.740124 10.60574 -33.06591 -3.362115 7.735935 -30.27898 4.880749 10.40189 -29.66898 4.880749 8.422649 -27.3172 4.367909 6.430119 -29.66868 4.533679 8.38422 -32.02176 4.687099 10.60574 -33.06591 3.362299 10.60634 -26.88234 3.362299 6.051394 -27.43744 3.138298 6.695024 -31.90122 4.023249 5.992145 -33.42695 -2.474168 5.127285 -33.42685 -0.3547008 5.087525 -32.87125 1.981063 5.463154 -31.90112 3.364799 4.535374 -29.66848 2.638939 4.535374 -29.30714 2.638939 5.087994 -27.0761 1.981062 5.127864 -26.5205 0.3548843 5.087994 -27.0761 -1.980879 5.463494 -28.04634 -3.364615 4.535374 -29.66848 -2.638756 5.463154 -31.90112 -3.364615 7.050255 -26.5207 3.362299 7.411596 -26.5207 3.362299 10.60634 -26.521 3.362299 11.66388 -26.521 2.474352 12.52878 -26.5211 0.3548843 12.19048 -26.5211 -1.777988 10.60634 -26.521 -3.362115 8.020856 -26.5207 -3.618716 7.659514 -26.5207 -3.618716 12.19288 -28.04694 3.364799 12.40848 -29.66918 3.580509 12.19258 -31.90162 3.364799 12.18988 -33.42745 1.778173 12.18988 -33.42745 1.416835 11.66328 -33.42735 -2.474168 12.33908 -31.26902 -3.511005 12.40848 -29.66918 -3.580326 12.40848 -29.30784 -3.580326 10.60574 -33.42725 3.362299 8.020277 -33.42705 3.618899 7.658935 -33.42705 3.618899 7.049665 -33.42695 -3.362115 8.160706 -33.90224 -3.114815 10.60574 -33.42725 -3.362115 5.930489 -32.63047 -2.897224 5.93048 -32.63047 2.897408 5.704388 -27.9259 -3.123723 5.930947 -27.317 2.897407 11.42239 -33.18647 -2.594614 11.94899 -33.18656 1.898619 11.72559 -27.3175 -2.897224 10.72679 -26.7619 3.121408</float_array>
          <technique_common>
            <accessor source="#Cube_021-mesh-positions-array" count="98" stride="3">
              <param name="X" type="float"/>
              <param name="Y" type="float"/>
              <param name="Z" type="float"/>
            </accessor>
          </technique_common>
        </source>
        <source id="Cube_021-mesh-normals">
          <float_array id="Cube_021-mesh-normals-array" count="576">-0.9472159 -0.2768359 0.1616913 -0.8791293 -0.2997397 0.3705238 -0.698634 -0.6986445 0.1542934 -0.7359616 0 0.6770234 -0.9311705 0.3331829 0.1480225 -0.9379922 0.2998368 0.1739789 -0.7071049 0 0.7071087 -0.7270569 0.4415624 0.5257478 -0.9117159 0.3764899 -0.1644067 -0.8461704 0.2817285 -0.4523547 -0.6986383 0.6986479 -0.1542587 -0.722857 0.3077259 -0.6186943 -0.9365857 -0.3298258 -0.1184161 -0.8037784 -0.4690139 -0.3660143 -0.8351352 -0.1778188 -0.5205092 0.1704787 -0.4519005 -0.8756273 -0.3018774 0.9169772 0.2608121 0 0.9352599 0.3539618 -0.6580375 0.7173338 0.2289519 -0.4605527 0.6573483 0.5964769 0.1868762 0.9462687 0.2639184 0.3828668 0.8560538 0.3472533 4.77964e-5 0.5066679 0.8621414 0.9378549 0.1620863 0.3068492 0.2376474 0.9598437 -0.1490768 0.1319107 0.915188 -0.3808289 0.6297215 0.7703731 -0.09988152 0.4131754 0.6521162 -0.635634 -0.3410264 0.9237195 -0.17448 -0.5289663 0.806213 -0.2649821 0 0.8006325 -0.5991559 -0.5752959 0.6075133 -0.5476883 0.9111011 0.3528081 0.2131225 0.867982 0.1770498 0.4639618 0.7812792 0.5366306 0.3187956 0.3681377 0.560509 0.7418251 0.968498 -0.2321671 0.090056 0.9175474 -0.3976265 0 0.8744508 -0.1297355 0.4674448 0.7207221 -0.57628 0.3853064 0.8026888 -0.3632014 -0.4730492 0.8848834 -0.3593219 -0.2964272 0.5351815 -0.8416243 -0.07245314 0.6638528 0.3277553 -0.6722173 0.900929 0.3643065 -0.2358128 0.8906831 0.4104357 -0.195515 0.7785769 0 -0.6275494 0.6904329 0.4352076 -0.577838 0.3205201 -0.8713736 0.37145 0.2795186 -0.9355555 0.2158827 0 -1 0 0 -0.4472097 0.8944292 -0.2387363 -0.9389957 0.2475726 -0.5345407 -0.8242055 0.186954 0 -0.6871675 0.7264991 -0.5274595 -0.6602912 0.5346046 -0.2639979 -0.9185117 -0.2943494 -0.2825381 -0.8703336 -0.4033505 -0.686931 -0.6705015 -0.280274 -0.5849539 -0.4153161 -0.6966646 0.2043914 -0.9491201 -0.2395732 0.3916882 -0.8580319 -0.3322072 0.01750868 -0.5311543 -0.8470943 0.5940099 -0.6885209 -0.4160425 -0.3024145 -0.286498 -0.909101 -0.4510746 -0.2905866 -0.8438551 -0.1315555 -0.6819018 -0.7195159 -0.5907132 -0.4324153 -0.6812304 -0.4172189 0.3123781 -0.8534333 -0.4233319 0.371457 -0.8263232 0 -0.4084427 -0.912784 0 0.8944321 -0.4472038 0.2539618 0.3658313 -0.8953608 0.5114083 0.371149 -0.7750549 0.07041871 0.7019795 -0.7087073 0.5852819 0.4163442 -0.695775 0.3297627 -0.3610321 -0.8723029 0.4183171 0 -0.908301 0.6264367 -0.06084454 -0.777094 0.5230944 -0.5579753 -0.6442329 0.3437323 -0.3659545 0.8648269 0.2762119 -0.3783503 0.883492 0.09876191 0 0.9951112 0.7367655 0 0.6761484 0.3022656 0.4389035 0.8461675 0.4182884 0 0.9083143 0.5348458 0.1808321 0.8253725 0.484451 0.6611995 0.5728199 -0.4338231 0.4236581 0.7951802 -0.635656 0.3288816 0.6984113 0 -0.2373638 0.9714209 -0.6189785 0.5336121 0.5763019 -0.3555091 -0.2482072 0.901114 -0.3551747 -0.4425747 0.8233946 -0.7056676 -0.06382209 0.7056628 -0.3561715 -0.6551671 0.6662567 -0.9462927 -0.2861853 0.1504266 -0.7056629 -0.06381833 0.7056679 -0.996313 0 0.08579277 -0.589133 -0.668428 0.4540114 -0.9417594 0.2924934 0.1659424 -0.6899657 0.6899747 0.2188203 -0.8702217 0.3470313 0.3496907 -0.661624 0.2995864 0.6873877 -0.9221513 0.2463239 -0.2982643 -0.9221031 0.2463292 -0.2984092 -0.9476218 0.2954389 -0.1213625 -0.3055775 0.9380371 -0.1634286 -0.9442468 -0.2874099 -0.1606038 -0.6793932 -0.6794053 -0.2771885 -0.2879161 -0.2511317 -0.9241414 -0.8118484 -0.4775229 -0.3359676 -0.2592543 0.9185613 0.2983834 -0.3317214 0.8074376 0.4878579 -0.5198695 0.7822502 0.3432499 -0.6355773 0.6521922 0.4131427 0.1900128 0.9468271 0.2596415 0.6868631 0.6705771 0.2802597 0.2271757 0.8896582 0.3961053 0.2087351 0.7783747 0.5920832 0.1174474 0.9530661 -0.2790544 0.05804896 0.8097124 -0.5839489 0.3900579 0.901767 -0.1862019 0.6356636 0.6520986 -0.4131577 -0.3063153 0.9306774 -0.200027 -0.6843534 0.7119024 -0.1576563 -0.4895915 0.6977637 -0.5229015 -0.4294438 0.5982798 -0.6764904 0.9174392 0.3258534 0.228309 0.7354657 0.3281852 0.5927772 0.6378292 0.6378345 0.4316725 0.762626 0.502245 0.4076172 0.9696888 -0.1660019 0.179296 0.8390166 -0.4820398 0.2523667 0.7548608 -0.244876 0.6084579 0.1753202 -0.2944158 0.9394585 0.983854 -0.1345387 -0.118028 0.777129 -0.06085371 -0.6263925 0.8171465 -0.09573912 -0.5684238 0.6441585 -0.5579926 -0.5231675 0.8918411 0.4081792 -0.1949594 0.7027004 0.7027018 -0.1114562 0.7751269 0.3710828 -0.5113471 0.6957987 0.416339 -0.5852572 0.1321541 -0.9653749 0.2249151 0.07444709 -0.6565248 0.7506216 0.3560031 -0.8640143 0.3560072 0.6480566 -0.5742018 0.5003149 -0.3410183 -0.9237105 0.174544 -0.5863841 -0.7767908 0.2296732 -0.3215547 -0.8278971 0.4595531 -0.4606778 -0.657253 0.5964851 -0.2333609 -0.9180695 -0.3204546 -0.2421374 -0.906587 -0.3456438 -0.3829234 -0.856014 -0.347289 -0.344082 -0.8447954 -0.4097908 0.1411474 -0.9353591 -0.3243162 0.8069507 -0.5804313 -0.1092258 0.260792 -0.878323 -0.4006698 -0.09192156 -0.5173417 -0.8508278 0 -0.4673213 -0.8840876 -0.6381022 -0.01489096 -0.7698078 -0.3507043 -0.4397049 -0.8268411 -0.3561711 -0.6551709 -0.6662532 0 0.1706135 -0.985338 0 0.6850578 -0.7284888 -0.6115782 0.1375089 -0.7791428 -0.5678627 0.5867407 -0.5772932 0.07105916 0.1541635 -0.9854868 0.6276013 0 -0.778535 0.2509073 0.4158781 -0.8741229 0.577863 0.4352203 -0.6904041 0.127754 -0.1755899 -0.9761389 0.06618744 -0.7071901 -0.7039186 0.2964518 -0.3592888 -0.8848887 0.6848464 0 -0.7286875 0.02330189 -0.1018397 0.9945279 0.5389943 -0.1325018 0.8318224 0.1629769 -0.6234603 0.7646802 0.5047557 -0.6890565 0.5200221 -0.0411219 0.1797187 0.9828582 7.40017e-5 0.7839349 0.6208431 0.3183321 0.4354736 0.8420376 0.8944218 0 0.4472246 -0.1610378 0.2045209 0.9655249 -0.707104 0 0.7071096 -0.429773 0.4458107 0.7852058 -0.7079873 0.4230256 0.5655117 -0.3699367 -0.2374151 0.8982098 0 -0.6051472 0.7961136 -0.4565153 -0.24943 0.8540366 -0.5208455 -0.510369 0.6842833</float_array>
          <technique_common>
            <accessor source="#Cube_021-mesh-normals-array" count="192" stride="3">
              <param name="X" type="float"/>
              <param name="Y" type="float"/>
              <param name="Z" type="float"/>
            </accessor>
          </technique_common>
        </source>
        <vertices id="Cube_021-mesh-vertices">
          <input semantic="POSITION" source="#Cube_021-mesh-positions"/>
        </vertices>
        <polylist count="192">
          <input semantic="VERTEX" source="#Cube_021-mesh-vertices" offset="0"/>
          <input semantic="NORMAL" source="#Cube_021-mesh-normals" offset="1"/>
          <vcount>3 3 3 3 3 3 3 3 3 3 3 3 3 3 3 3 3 3 3 3 3 3 3 3 3 3 3 3 3 3 3 3 3 3 3 3 3 3 3 3 3 3 3 3 3 3 3 3 3 3 3 3 3 3 3 3 3 3 3 3 3 3 3 3 3 3 3 3 3 3 3 3 3 3 3 3 3 3 3 3 3 3 3 3 3 3 3 3 3 3 3 3 3 3 3 3 3 3 3 3 3 3 3 3 3 3 3 3 3 3 3 3 3 3 3 3 3 3 3 3 3 3 3 3 3 3 3 3 3 3 3 3 3 3 3 3 3 3 3 3 3 3 3 3 3 3 3 3 3 3 3 3 3 3 3 3 3 3 3 3 3 3 3 3 3 3 3 3 3 3 3 3 3 3 3 3 3 3 3 3 3 3 3 3 3 3 3 3 3 3 3 3 </vcount>
          <p>0 0 4 0 5 0 1 1 5 1 57 1 4 2 55 2 56 2 5 3 56 3 91 3 0 4 1 4 6 4 2 5 6 5 60 5 1 6 58 6 59 6 6 7 59 7 93 7 0 8 2 8 7 8 7 9 63 9 64 9 2 10 61 10 62 10 7 11 62 11 92 11 0 12 3 12 8 12 4 13 8 13 54 13 64 14 65 14 8 14 65 15 90 15 54 15 9 16 13 16 14 16 14 17 66 17 67 17 13 18 61 18 60 18 14 19 60 19 93 19 9 20 10 20 15 20 11 21 15 21 69 21 10 22 67 22 68 22 15 23 68 23 97 23 9 24 11 24 16 24 12 25 16 25 72 25 11 26 70 26 71 26 16 27 71 27 96 27 9 28 12 28 17 28 13 29 17 29 62 29 12 30 73 30 74 30 17 31 74 31 92 31 18 32 22 32 23 32 23 33 75 33 76 33 70 34 69 34 23 34 69 35 97 35 75 35 18 36 19 36 24 36 24 37 78 37 79 37 76 38 77 38 24 38 24 39 77 39 95 39 20 40 25 40 21 40 21 41 25 41 81 41 20 42 79 42 80 42 25 43 80 43 94 43 18 44 21 44 26 44 22 45 26 45 71 45 21 46 82 46 83 46 26 47 83 47 96 47 31 48 32 48 28 48 28 49 32 49 84 49 79 50 78 50 32 50 32 51 78 51 95 51 27 52 28 52 33 52 33 53 56 53 55 53 28 54 85 54 86 54 33 55 86 55 91 55 27 56 29 56 34 56 34 57 87 57 88 57 29 58 55 58 54 58 54 59 90 59 87 59 27 60 30 60 35 60 31 61 35 61 80 61 30 62 88 62 89 62 35 63 89 63 94 63 36 64 40 64 41 64 37 65 41 65 65 65 40 66 88 66 87 66 41 67 87 67 90 67 37 68 42 68 38 68 38 69 42 69 74 69 64 70 63 70 42 70 42 71 63 71 92 71 38 72 43 72 39 72 39 73 43 73 83 73 38 74 73 74 72 74 43 75 72 75 96 75 39 76 44 76 40 76 40 77 44 77 89 77 39 78 82 78 81 78 44 79 81 79 94 79 49 80 50 80 46 80 46 81 50 81 77 81 85 82 84 82 50 82 50 83 84 83 95 83 46 84 51 84 47 84 47 85 51 85 68 85 46 86 76 86 75 86 51 87 75 87 97 87 47 88 52 88 48 88 48 89 52 89 59 89 67 90 66 90 52 90 52 91 66 91 93 91 45 92 48 92 53 92 49 93 53 93 86 93 48 94 58 94 57 94 53 95 57 95 91 95 1 96 0 96 5 96 58 97 1 97 57 97 5 98 4 98 56 98 57 99 5 99 91 99 2 100 0 100 6 100 61 101 2 101 60 101 6 102 1 102 59 102 60 103 6 103 93 103 3 104 0 104 7 104 3 105 7 105 64 105 7 106 2 106 62 106 63 107 7 107 92 107 4 108 0 108 8 108 55 109 4 109 54 109 3 110 64 110 8 110 8 111 65 111 54 111 10 112 9 112 14 112 10 113 14 113 67 113 14 114 13 114 60 114 66 115 14 115 93 115 11 116 9 116 15 116 70 117 11 117 69 117 15 118 10 118 68 118 69 119 15 119 97 119 12 120 9 120 16 120 73 121 12 121 72 121 16 122 11 122 71 122 72 123 16 123 96 123 13 124 9 124 17 124 61 125 13 125 62 125 17 126 12 126 74 126 62 127 17 127 92 127 19 128 18 128 23 128 19 129 23 129 76 129 22 130 70 130 23 130 23 131 69 131 75 131 20 132 18 132 24 132 20 133 24 133 79 133 19 134 76 134 24 134 78 135 24 135 95 135 18 136 20 136 21 136 82 137 21 137 81 137 25 138 20 138 80 138 81 139 25 139 94 139 22 140 18 140 26 140 70 141 22 141 71 141 26 142 21 142 83 142 71 143 26 143 96 143 27 144 31 144 28 144 85 145 28 145 84 145 31 146 79 146 32 146 84 147 32 147 95 147 29 148 27 148 33 148 29 149 33 149 55 149 33 150 28 150 86 150 56 151 33 151 91 151 30 152 27 152 34 152 30 153 34 153 88 153 34 154 29 154 54 154 34 155 54 155 87 155 31 156 27 156 35 156 79 157 31 157 80 157 35 158 30 158 89 158 80 159 35 159 94 159 37 160 36 160 41 160 64 161 37 161 65 161 41 162 40 162 87 162 65 163 41 163 90 163 36 164 37 164 38 164 73 165 38 165 74 165 37 166 64 166 42 166 74 167 42 167 92 167 36 168 38 168 39 168 82 169 39 169 83 169 43 170 38 170 72 170 83 171 43 171 96 171 36 172 39 172 40 172 88 173 40 173 89 173 44 174 39 174 81 174 89 175 44 175 94 175 45 176 49 176 46 176 76 177 46 177 77 177 49 178 85 178 50 178 77 179 50 179 95 179 45 180 46 180 47 180 67 181 47 181 68 181 51 182 46 182 75 182 68 183 51 183 97 183 45 184 47 184 48 184 58 185 48 185 59 185 47 186 67 186 52 186 59 187 52 187 93 187 49 188 45 188 53 188 85 189 49 189 86 189 53 190 48 190 57 190 86 191 53 191 91 191</p>
        </polylist>
      </mesh>
    </geometry>
  </library_geometries>
  <library_controllers/>
  <library_visual_scenes>
    <visual_scene id="Scene" name="Scene">
      <node id="COL_VIZ_LeftFingerJoint50y_link_0" name="COL_VIZ_LeftFingerJoint50y_link_0" type="NODE">
        <instance_geometry url="#Cube_021-mesh" name="COL_VIZ_LeftFingerJoint50y_link_0"/>
      </node>
    </visual_scene>
  </library_visual_scenes>
  <scene>
    <instance_visual_scene url="#Scene"/>
  </scene>
</COLLADA>