<?xml version="1.0" encoding="utf-8"?>
<COLLADA xmlns="http://www.collada.org/2005/11/COLLADASchema" version="1.4.1">
  <asset>
    <contributor>
      <author>Blender User</author>
      <authoring_tool>Blender 2.76.0 commit date:2015-10-09, commit time:12:01, hash:a3cf9c5</authoring_tool>
    </contributor>
    <created>2015-10-22T17:19:55</created>
    <modified>2015-10-22T17:19:55</modified>
    <unit name="meter" meter="1"/>
    <up_axis>Z_UP</up_axis>
  </asset>
  <library_images/>
  <library_effects>
    <effect id="Triding_-effect">
      <profile_COMMON>
        <technique sid="common">
          <lambert>
            <emission>
              <color sid="emission">0 0 0 1</color>
            </emission>
            <ambient>
              <color sid="ambient">0 0 0 1</color>
            </ambient>
            <diffuse>
              <color sid="diffuse">0.8 0.8 0.8 1</color>
            </diffuse>
            <index_of_refraction>
              <float sid="index_of_refraction">1</float>
            </index_of_refraction>
          </lambert>
        </technique>
      </profile_COMMON>
    </effect>
    <effect id="Triding-effect">
      <profile_COMMON>
        <technique sid="common">
          <lambert>
            <emission>
              <color sid="emission">0 0 0 1</color>
            </emission>
            <ambient>
              <color sid="ambient">0 0 0 1</color>
            </ambient>
            <diffuse>
              <color sid="diffuse">0.64 0.5263848 0.2303214 1</color>
            </diffuse>
            <index_of_refraction>
              <float sid="index_of_refraction">1</float>
            </index_of_refraction>
          </lambert>
        </technique>
      </profile_COMMON>
    </effect>
  </library_effects>
  <library_materials>
    <material id="Triding_-material" name="Triding_">
      <instance_effect url="#Triding_-effect"/>
    </material>
    <material id="Triding-material" name="Triding">
      <instance_effect url="#Triding-effect"/>
    </material>
  </library_materials>
  <library_geometries>
    <geometry id="Cube_048-mesh" name="Cube.048">
      <mesh>
        <source id="Cube_048-mesh-positions">
          <float_array id="Cube_048-mesh-positions-array" count="126">-1 0 0 0 1 0 1 0 0 0 -1 0 0 0 -1 -0.9114242 0 1 0 0 1 0 -0.9114242 1 0 0.9114242 1 0.9114242 0 1 -0.75 -0.75 0 -0.977856 0 0.75 -0.75 0.75 0 -0.75 0 -0.75 0 0.977856 0.75 0.75 0.75 0 0 0.75 -0.75 0.977856 0 0.75 0.75 -0.75 0 0.75 0 -0.75 0 -0.977856 0.75 0 -0.75 -0.75 -0.6392803 0 1 0 0.6392803 1 0.6392803 0 1 0 -0.6392803 1 -0.6835681 -0.6835681 1 -0.6835681 0.6835681 1 0.6835681 -0.6835681 1 0.6835681 0.6835681 1 -0.5555556 -0.5555556 -0.5555556 -0.7333921 -0.7333921 0.75 -0.5555556 0.5555556 -0.5555556 -0.7333921 0.7333921 0.75 0.5555556 -0.5555556 -0.5555556 0.7333921 -0.7333921 0.75 0.5555556 0.5555556 -0.5555556 0.7333921 0.7333921 0.75 -0.4866633 -0.4866633 1 -0.4866633 0.4866633 1 0.4866633 0.4866633 1 0.4866633 -0.4866633 1</float_array>
          <technique_common>
            <accessor source="#Cube_048-mesh-positions-array" count="42" stride="3">
              <param name="X" type="float"/>
              <param name="Y" type="float"/>
              <param name="Z" type="float"/>
            </accessor>
          </technique_common>
        </source>
        <source id="Cube_048-mesh-normals">
          <float_array id="Cube_048-mesh-normals-array" count="87">-0.9483114 -0.3161037 0.0279991 -0.9483114 0.3161037 0.0279991 -0.8703884 0.3481553 -0.3481553 -0.8703883 -0.3481553 -0.3481553 -0.3161038 0.9483115 0.0279991 0.3161038 0.9483115 0.02799904 0.3481553 0.8703883 -0.3481553 -0.3481553 0.8703884 -0.3481553 0.9483114 0.3161037 0.0279991 0.9483114 -0.3161037 0.0279991 0.8703884 -0.3481553 -0.3481553 0.8703883 0.3481553 -0.3481553 0.3161038 -0.9483115 0.0279991 -0.3161038 -0.9483115 0.02799904 -0.3481553 -0.8703883 -0.3481553 0.3481553 -0.8703884 -0.3481553 -0.3481553 -0.3481553 -0.8703884 -0.3481553 0.3481553 -0.8703884 0.3481553 0.3481553 -0.8703884 0.3481553 -0.3481553 -0.8703884 -0.9199035 0.3066344 0.2444437 -0.9199035 -0.3066345 0.2444438 0 0 1 -0.3066344 -0.9199036 0.244444 0.3066344 -0.9199036 0.2444439 0.3066344 0.9199036 0.244444 -0.3066344 0.9199036 0.2444439 0.9199035 -0.3066344 0.2444437 0.9199035 0.3066345 0.2444438</float_array>
          <technique_common>
            <accessor source="#Cube_048-mesh-normals-array" count="29" stride="3">
              <param name="X" type="float"/>
              <param name="Y" type="float"/>
              <param name="Z" type="float"/>
            </accessor>
          </technique_common>
        </source>
        <vertices id="Cube_048-mesh-vertices">
          <input semantic="POSITION" source="#Cube_048-mesh-positions"/>
        </vertices>
        <polylist material="Triding_-material" count="36">
          <input semantic="VERTEX" source="#Cube_048-mesh-vertices" offset="0"/>
          <input semantic="NORMAL" source="#Cube_048-mesh-normals" offset="1"/>
          <vcount>4 4 4 4 4 4 4 4 4 4 4 4 4 4 4 4 4 4 4 4 4 4 4 4 4 4 4 4 4 4 4 4 4 4 4 4 </vcount>
          <p>0 0 10 0 31 0 11 0 0 1 11 1 33 1 12 1 0 2 12 2 32 2 13 2 0 3 13 3 30 3 10 3 1 4 12 4 33 4 14 4 1 5 14 5 37 5 15 5 1 6 15 6 36 6 16 6 1 7 16 7 32 7 12 7 2 8 15 8 37 8 17 8 2 9 17 9 35 9 18 9 2 10 18 10 34 10 19 10 2 11 19 11 36 11 15 11 3 12 18 12 35 12 20 12 3 13 20 13 31 13 10 13 3 14 10 14 30 14 21 14 3 15 21 15 34 15 18 15 4 16 21 16 30 16 13 16 4 17 13 17 32 17 16 17 4 18 16 18 36 18 19 18 4 19 19 19 34 19 21 19 5 20 27 20 33 20 11 20 5 21 11 21 31 21 26 21 5 22 26 22 38 22 22 22 5 22 22 22 39 22 27 22 7 23 26 23 31 23 20 23 7 24 20 24 35 24 28 24 7 22 28 22 41 22 25 22 7 22 25 22 38 22 26 22 8 25 29 25 37 25 14 25 8 26 14 26 33 26 27 26 8 22 27 22 39 22 23 22 8 22 23 22 40 22 29 22 9 27 28 27 35 27 17 27 9 28 17 28 37 28 29 28 9 22 29 22 40 22 24 22 9 22 24 22 41 22 28 22</p>
        </polylist>
        <polylist material="Triding-material" count="4">
          <input semantic="VERTEX" source="#Cube_048-mesh-vertices" offset="0"/>
          <input semantic="NORMAL" source="#Cube_048-mesh-normals" offset="1"/>
          <vcount>4 4 4 4 </vcount>
          <p>6 22 25 22 41 22 24 22 6 22 24 22 40 22 23 22 6 22 23 22 39 22 22 22 6 22 22 22 38 22 25 22</p>
        </polylist>
      </mesh>
    </geometry>
  </library_geometries>
  <library_controllers/>
  <library_visual_scenes>
    <visual_scene id="Scene" name="Scene">
      <node id="Tripotplatte" name="Tripotplatte" type="NODE">
        <matrix sid="transform">0.2748352 0.08567203 0 -5.945149 -0.08567203 0.2748352 0 -7.7 0 0 0.004692154 4.750602 0 0 0 1</matrix>
        <instance_geometry url="#Cube_048-mesh" name="Tripotplatte">
          <bind_material>
            <technique_common>
              <instance_material symbol="Triding_-material" target="#Triding_-material"/>
              <instance_material symbol="Triding-material" target="#Triding-material"/>
            </technique_common>
          </bind_material>
        </instance_geometry>
      </node>
    </visual_scene>
  </library_visual_scenes>
  <scene>
    <instance_visual_scene url="#Scene"/>
  </scene>
</COLLADA>